{
	"menu_jowi": "Wick",
	"hud_int_hold_grab_the_bag": "Segure $INTERACT para pegar a bag de $BAG",

	"jimhud_dialog_force_start_title": "Forçar início de jogo?",
	"jimhud_dialog_force_start_desc": "Você tem certeza que quer forçar o início do jogo?\n\nFavor use apenas para salas bugadas, ou se um player estiver afk.\nCertifique-se que todos tiveram tempo de escolher o loadout.\n\nObrigado :)",
	"jimhud_dialog_rename_inv_tab": "Renomear a página do inventário",
	"jimhud_dialog_rename_inv_tab_desc": "Tecle um novo nome para esta página de inventário.",
	"jimhud_dialog_save": "Gravar",
	"jimhud_dialog_requires_superblt_title": "[JimHUD] No SuperBLT detected!",
	"jimhud_dialog_requires_superblt_desc_long": "JimHUD requires SuperBLT in order to work.\nSuperBLT is a fork of the BLT mod-loading hook for PAYDAY 2, with a number of major improvements. \nIt is fully backwards-compatable with regular BLT mods.\n\nYou can find further information and installation instructions here: \n$URL",
	"jimhud_dialog_requires_superblt_desc_short": "JimHUD is no longer compatable with regular BLT.\nPlease update to SuperBLT to continue using it.\nYou can find SuperBLT at '$URL'.",
	"jimhud_dialog_update_install_folder_title": "[JimHUD] Auto-Updates compromised!",
	"jimhud_dialog_update_install_folder_desc": "For automatic updates, JimHUD's install folder \nneeds to be named 'mods/jimhud-master/'. \n(Currently its 'mods/$FOLDER/')",
	"jimhud_notification_disabled_override_title": "JimHUD: $NAME está atualmente desativado.",
	"jimhud_notification_disabled_override_desc": "Se você mudou de idéia, clique aqui novamente.",
	"jimhud_notification_restart_override_title": "JimHUD: $NAME está pronto para instalar.",
	"jimhud_notification_restart_override_desc": "Reinicie o jogo para iniciar o download.",

	"jimhud_int_locked": "APERTE $BTN_CANCEL PARA INTERROMPER",
	"jimhud_int_locked_pager": "APERTE $BTN_CANCEL PARA INTERROMPER\n(ATIVA O ALARME)",

	"jimhud_buy_all_assets": "Comprar tudo",
	"jimhud_buy_all_assets_desc": "Compra todos os assets que são permitidos você adquirir.",

	"jimhud_preplanning_save": "Gravar plano",
	"jimhud_preplanning_load": "Carregar plano",
	"jimhud_preplanning_reset": "Resetar plano",
	"jimhud_preplanning_reset_all": "Resetar tudo",
	"jimhud_preplanning_delete": "Deletar um ou mais planos",
	"jimhud_preplanning_save_tooltip_title": "Gravar plano atual:",
	"jimhud_preplanning_save_tooltip_desc": "Grava seu plano atual, e você fará mais facil da próxima vez nesta missão.",
	"jimhud_preplanning_load_tooltip_title": "Carregar ultimo plano:",
	"jimhud_preplanning_load_tooltip_desc": "Abre um menu com todos os planos gravados.",
	"jimhud_preplanning_reset_tooltip_title": "Resetar plano atual:",
	"jimhud_preplanning_reset_tooltip_desc": "Remove todos os assets do plano atual, assim como os votes.",
	"jimhud_preplanning_reset_all_tooltip_title": "Resetar o plano completamente:",
	"jimhud_preplanning_reset_all_tooltip_desc": "Remove todos os assets do plano atual, assim como os votes.",
	"jimhud_preplanning_delete_tooltip_title": "Deletar plano gravado",
	"jimhud_preplanning_delete_tooltip_desc": "Limpa seus planos gravados.",
	"jimhud_preplanning_manager_title": "Gerenciador de Preplanning",
	"jimhud_preplanning_error_no_saved_plans": "Não foram encontrados planos gravados.",
	"jimhud_preplanning_error_max_plans_reached": "Quantidade máxima de planos gravados atingida.",
	"jimhud_preplanning_votes_title": "Votes:",
	"jimhud_preplanning_assets_title": "Assets:",
	"jimhud_preplanning_dialog_save": "Gravar planos?",
	"jimhud_preplanning_dialog_save_desc": "$PLAN\n\n\nTecle um nome para este plano.\n(Usar um nome existente irá sobrescrever o anterior.)",
	"jimhud_preplanning_dialog_delete": "Deletar plano?",
	"jimhud_preplanning_dialog_delete_desc": "Você tem certeza que quer deletar plano '$NAME'?",
	"jimhud_preplanning_msg_saved_success": "Plano atual gravado com sucesso.",
	"jimhud_preplanning_msg_saved_failed": "Ocorreu um erro ao gravar o plano.",
	"jimhud_preplanning_msg_no_save_slot": "Quantidade máxima de planos gravados atingida.",
	"jimhud_preplanning_msg_no_current_plan": "Você não tem nada planejado, que possa ser gravado.",
	"jimhud_preplanning_msg_loaded_success": "O plano foi carregado com sucesso.",
	"jimhud_preplanning_msg_loaded_failed": "Ocorreu um erro ao carregar o plano.",
	"jimhud_preplanning_msg_loaded_partitially": "O plano foi carregado parcialmente: $ERRORMSG",
	"jimhud_preplanning_msg_loaded_missing_skill": "Faltando uma Skill",
	"jimhud_preplanning_msg_loaded_missing_favours": "Sem favores suficientes",
	"jimhud_preplanning_msg_loaded_missing_money": "Sem dinheiro suficiente",
	"jimhud_preplanning_msg_reseted_success": "Resetar plano atual.",
	"jimhud_preplanning_msg_reseted_failed": "Ocorreu um erro ao resetar o plano atual.",
	"jimhud_preplanning_msg_deleted_success": "O plano foi deletado com sucesso.",
	"jimhud_preplanning_msg_deleted_failed": "Ocorreu um erro ao deletar o plano.",
	"jimhud_preplanning_msg_folder_creation_failed": "Falha ao criar pasta: $FOLDER \nCertifique-se que o jogo tem as permissões requeridas ou crie manualmente.",
	"jimhud_preplanning_msg_file_creation_failed": "Falha ao criar arquivo: $FILE \nCertifique-se que o jogo tem as permissões requeridas ou crie manualmente.",

	"jimhud_inv_tab_rename_hint": "Clique duas vezes na aba para renomeá-la.",

	"jimhud_loadout_hours_played": "$HOURS hrs.",

	"jimhud_profile_switch_title": "Mudar perfil",
	"jimhud_profile_switch_title_profiles": "Perfil:",

	"victory_most_damage": "Maior dano:",
	"victory_session_damage": "Dano total:",

	"jimhud_advassault_phase_title": "Período do Assault: ",
	"jimhud_advassault_spawns_title": "Spawns restantes: ",
	"jimhud_advassault_time_title": "Tempo restante: ",
	"jimhud_advassault_phase_anticipation": "Anticipation",
	"jimhud_advassault_phase_build": "Build",
	"jimhud_advassault_phase_sustain": "Sustain",
	"jimhud_advassault_phase_fade": "Fade",
	"jimhud_advassault_time_overdue": "ATRASADO",
	"jimhud_locked_assault": "Police Assault infinito!!!  Escape o mais rápido possível!!!",

	"jimhud_customhud_interaction_done": "COMPLETO",
	"jimhud_customhud_interaction_aborted": "ABORTADO",

	"jimhud_hudlist_device_timer": "Timer",
	"jimhud_hudlist_device_drill": "Drill",
	"jimhud_hudlist_device_hack": "Hack",
	"jimhud_hudlist_device_saw": "Serra",
	"jimhud_hudlist_device_security": "Hacks",
	"jimhud_hudlist_device_security_bar": "Hack $CURRENT/$TOTAL",
	"jimhud_hudlist_loot_armor": "Colete",
	"jimhud_hudlist_loot_bomb": "Bomba",
	"jimhud_hudlist_loot_weapon": "Arma",
	"jimhud_hudlist_loot_diamond": "Diamante",
	"jimhud_hudlist_loot_evidence": "Evidência",
	"jimhud_hudlist_loot_toast": "Toast",
	"jimhud_hudlist_loot_crate": "Caixa",
	"jimhud_hudlist_loot_toothbrush": "Escova",
	"jimhud_hudlist_loot_bag": "Bolsa",
	"jimhud_hudlist_loot_shoes": "Sapatos",
	"jimhud_hudlist_loot_toy": "Brinquedo",
	"jimhud_hudlist_loot_vr": "Headset",
	"jimhud_hudlist_loot_egg": "Egg",
	"jimhud_hudlist_loot_treasure": "Treasure",
	"jimhud_hudlist_loot_showcase": "Mostruário",

	"jimhud_hudlist_buff_basic": "Basic",
	"jimhud_hudlist_buff_aced": "Aced",
	"jimhud_hudlist_buff_boost": "Boost",
	"jimhud_hudlist_buff_revive": "Reviver",
	"jimhud_hudlist_buff_crew_inspire_debuff": "Reviver (AI)",
	"jimhud_hudlist_buff_dmg_inc": "+Dmg",
	"jimhud_hudlist_buff_dmg_dec": "-Dmg",
	"jimhud_hudlist_buff_mdmg_inc": "+M.Dmg",
	"jimhud_hudlist_buff_phealth_reg": "+HP",
	"jimhud_hudlist_buff_tot_dodge": "%Esquiva",

	"jimhud_tabstats_total_damage": "Dano total:",
	"jimhud_tabstats_tanks_killed": "Bulldozers mortos:",
	"jimhud_tabstats_cloakers_killed": "Cloakers mortos:",
	"jimhud_tabstats_shields_killed": "Shields mortos:",
	"jimhud_tabstats_snipers_killed": "Snipers mortos:",
	"jimhud_tabstats_tasers_killed": "Tasers mortos:",
	"jimhud_tabstats_gensec_killed": "GENSEC mortos:",
	"jimhud_tabstats_medic_killed": "Médicos mortos:",
	"jimhud_tabstats_melee_kills": "Mortes com melee:",
	"jimhud_tabstats_explosion_kills": "Mortes com explõses:",
	"jimhud_tabstats_nonspecial_kills": "Mortes de cops não-especiais:",
	"jimhud_tabstats_total_kills": "Total Kills:",
	"jimhud_tabstats_total_revives": "Total de vezes que reviveu (P/AI):",
	"jimhud_tabstats_alltime_stat": "Tempo total:",

	"jimhud_enemy_civilian": "Civil",
	"jimhud_enemy_mariachi": "Mariachi Band Member",
	"jimhud_enemy_gangster": "Gangster",
	"jimhud_enemy_biker": "Motoqueiro",
	"jimhud_enemy_bolivian_security_mex": "Coyopa Security",
	"jimhud_enemy_bolivian_security": "Segurança do Sosa",
	"jimhud_enemy_bolivian_thug": "Matador do Sosa",
	"jimhud_enemy_mobster": "Mafioso Russo",
	"jimhud_enemy_security": "Segurança",
	"jimhud_enemy_gensec": "Unidade GENSEC",
	"jimhud_enemy_cop": "Oficial de polícia",
	"jimhud_enemy_fbi": "Unidade do FBI",
	"jimhud_enemy_swat": "Unidade da SWAT",
	"jimhud_enemy_heavy_swat": "Heavy SWAT",
	"jimhud_enemy_heavy_swat_sniper": "Heavy SWAT Sniper",
	"jimhud_enemy_city_swat": "Elite Unit",
	"jimhud_enemy_shield": "Shield",
	"jimhud_enemy_spook": "Cloaker",
	"jimhud_enemy_shadow_spook": "Shadow Cloaker",
	"jimhud_enemy_taser": "Taser",
	"jimhud_enemy_sniper": "Sniper",
	"jimhud_enemy_medic": "Médico",
	"jimhud_enemy_tank": "Bulldozer",
	"jimhud_enemy_tank_hw": "Headless Dozer",
	"jimhud_enemy_tank_medic": "Medic Dozer",
	"jimhud_enemy_tank_mini": "Minigun Dozer",
	"jimhud_enemy_phalanx_minion": "Winters Shield",
	"jimhud_enemy_phalanx_vip": "Captain Winters",
	"jimhud_enemy_swat_van": "SWAT TURRET",
	"jimhud_enemy_ceiling_turret": "TURRET",
	"jimhud_enemy_aa_turret": "Anti-Air Turret",
	"jimhud_enemy_crate_turret": "Turret",
	"jimhud_enemy_sentry_gun": "SENTRY GUN",
	"jimhud_enemy_mobster_boss": "O comissário",
	"jimhud_enemy_chavez_boss": "Chavez",
	"jimhud_enemy_druglord_boss": "Chefão Sosa",
	"jimhud_enemy_druglord_boss_stealth": "Chefão Sosa",
	"jimhud_enemy_biker_boss": "Chefe Biker",
	"jimhud_enemy_bank_manager": "Gerente do banco",
	"jimhud_enemy_dah_ralph": "Ralph Garnet",
	"jimhud_enemy_inside_man": "Infiltrado",
	"jimhud_enemy_escort_undercover": "Taxman",
	"jimhud_enemy_escort_heatstreet": "Matt",
	"jimhud_enemy_escort_chinese_prisoner": "Kazo",
	"jimhud_enemy_escort_cfo": "Garnett CFO",
	"jimhud_enemy_escort_reservoirdogs": "Senhor Pink",
	"jimhud_enemy_escort_bain_locke": "Locke / Bain",
	"jimhud_enemy_drunk_pilot": "Piloto bêbado",
	"jimhud_enemy_escort": "Escolta",
	"jimhud_enemy_boris": "Boris",
	"jimhud_enemy_spa_vip": "Charon",
	"jimhud_enemy_spa_vip_hurt": "Charon (Hurt)",
	"jimhud_enemy_old_hoxton_mission": "Hoxton",
	"jimhud_enemy_locke_mission": "Locke",
	"jimhud_enemy_hector_boss": "Hector Blindado",
	"jimhud_enemy_hector_boss_no_armor": "Hector",
	"jimhud_enemy_reservoirdogs": "Senhor Blonde",
	"jimhud_enemy_crew": "Membro da equipe",
	"jimhud_enemy_butler": "Aldstone",
	"jimhud_enemy_vlad": "Vlad",
	"jimhud_enemy_kento": "Kento",

	"jimhud_enemy_boom": "Grenadeiro",
	"jimhud_enemy_omnia_lpf": "OMNIA L.P.F.",
	"jimhud_enemy_summers": "Capitão Summers",
	"jimhud_enemy_boom_summers": "Major Molly",
	"jimhud_enemy_taser_summers": "Engineer Electrika",
	"jimhud_enemy_medic_summers": "Sergeant Doc",
	"jimhud_enemy_spring": "Captain Spring",
	"jimhud_enemy_fbi_vet": "Veteran Cop",

	"jimhud_enemy_deathvox_light": "ZEAL Unit",
	"jimhud_enemy_deathvox_heavy": "Heavy ZEAL",

	"jimhud_multiselect_all": "Tudo",
	"jimhud_multiselect_none": "Nenhum",
	"jimhud_multiselect_disabled": "Desativado",
	"jimhud_multiselect_random": "Aleatório",
	"jimhud_multiselect_left": "Esquerda",
	"jimhud_multiselect_center": "Centro",
	"jimhud_multiselect_right": "Direita",

	"jimhud_colors_white": "Branco",
	"jimhud_colors_light_yellow": "Amarelo claro",
	"jimhud_colors_light_orange": "Laranja claro",
	"jimhud_colors_light_red": "Vermelho claro",
	"jimhud_colors_light_purple": "Roxo claro",
	"jimhud_colors_light_green": "Verde claro",
	"jimhud_colors_light_blue": "Azul claro",
	"jimhud_colors_light_gray": "Cinza claro",
	"jimhud_colors_yellow": "Amarelo",
	"jimhud_colors_orange": "Laranja",
	"jimhud_colors_red": "Vermelho",
	"jimhud_colors_purple": "Roxo",
	"jimhud_colors_green": "Verde",
	"jimhud_colors_blue": "Azul",
	"jimhud_colors_gray": "Cinza",
	"jimhud_colors_black": "Preto",
	"jimhud_colors_rainbow": "Arco-íris",

	"jimhud_options_name": "JimHUD",
	"jimhud_options_help": "Customize o JimHUD com as suas prefências.",

	"jimhud_language_title": "Language",
	"jimhud_language_desc": "Select a localization for JimHUD.\n(A Map change is needed to apply...)",

	"jimhud_languages_english": "English",
	"jimhud_languages_german": "German",
	"jimhud_languages_dutch": "Dutch",
	"jimhud_languages_french": "French",
	"jimhud_languages_italian": "Italian",
	"jimhud_languages_spanish": "Spanish",
	"jimhud_languages_portuguese": "Portugese",
	"jimhud_languages_russian": "Russian",
	"jimhud_languages_chinese": "Chinese",
	"jimhud_languages_korean": "Korean",

	"jimhud_skip_blackscreen_title": "Pular tela preta",
	"jimhud_skip_blackscreen_desc": "Pular a tela preta automaticamente no início da missão.\n(Apenas o Host)",
	"jimhud_instant_restart_title": "Reinício Imediato",
	"jimhud_instant_restart_desc": "Pular o timer de 5 segundos automaticamente em lobbies públicos.\n(Apenas o Host)",
	"jimhud_stat_screen_speedup_title": "Acelerar a tela de estatísticas",
	"jimhud_stat_screen_speedup_desc": "Acelerar a contagem de experiência automaticamente, sem segurar a barra de espaço.",
	"jimhud_stat_screen_delay_title": "Atraso na tela de estatísticas",
	"jimhud_stat_screen_delay_desc": "Continuar em X segundos, após a sua contagem de EXP.\n(Apenas o Host, 0 = desativado) ",
	"jimhud_loot_screen_pick_card_title": "Escolha automática de carta",
	"jimhud_loot_screen_pick_card_desc": "Escolhe uma carta automaticamente, quando a tela de loot aparecer.",
	"jimhud_loot_screen_pick_specific_card_title": "Especificar carta",
	"jimhud_loot_screen_pick_specific_card_desc": "Especifica que carta pegar automaticamente.",
	"jimhud_loot_screen_delay_title": "Atraso na tela de cartas",
	"jimhud_loot_screen_delay_desc": "Continua em X segundos depois de pegar o seu loot drop.\n(Apenas o Host, 0 = desativado)",
	"jimhud_inventory_tab_names_title": "Usar nomes nas abas de inventário",
	"jimhud_inventory_tab_names_desc": "Customize os nomes nas abas de inventário.\n(Mude os nomes editando '/mods/saves/JimHUD_InventoryNames.txt')",
	"jimhud_inventory_names_title": "Mostrar os nomes das caixas de inventário",
	"jimhud_inventory_names_desc": "Mostra os nomes das suas armas, colete, deployables, etc. dentro da caixa no inventário.",
	"jimhud_skill_names_title": "Mostrar o nome das Skills",
	"jimhud_skill_names_desc": "Sempre mostrar os nomes das skills na árvore de habilidades.",
	"jimhud_show_contractor_job_heat_title": "Show Contractor Heat",
	"jimhud_show_contractor_job_heat_desc": "Shows job heat in the contract broker list.",
	"jimhud_show_mini_icons_title": "Sempre mostrar Mini-Icons",
	"jimhud_show_mini_icons_desc": "Sempre mostrar os mod icons de todas as armas, não apenas as selecionadas.",
	"jimhud_no_slowmotion_title": "Sem Slow Motion",
	"jimhud_no_slowmotion_desc": "Desativa o Slow Motion quando colocar a máscara ou quando cair.",
	"jimhud_reset_options_title": "Resetar configurações",
	"jimhud_reset_options_desc": "Resetar todas as configurações para os valores padrão.",
	"jimhud_reset_options_confirm": "Você tem certeza que quer resetar todas as configurações para os valores padrão?",

	"jimhud_adv_assault_title": "Banner de Assault Avançado",
	"jimhud_adv_assault_desc": "Mostra a etapa do assault, o tempo e os spawns restantes durante o assault.\n(Apenas o Host)",
	"jimhud_assault_position_title": "Banner de Assault",
	"jimhud_assault_position_desc": "Posição horizontal do Banner de Assault.",
	"jimhud_pacified_civs_title": "Mostrar civis pacificados",
	"jimhud_pacified_civs_desc": "Muda a posição dos civis desamarrados, enquanto estiverem pacificados.",
	"jimhud_use_realammo_title": "Usar munição real",
	"jimhud_use_realammo_desc": "Mostra a munição restante, sem considerar a contagem de balas do magazine.",
	"jimhud_enable_burstmode_desc": "Ativa o modo rajada para suas armas.",

	"jimhud_playerpanel_options_name": "Painel do jogador",
	"jimhud_playerpanel_options_help": "Configura seu próprio painel de HUD.",

	"jimhud_teampanels_options_name": "Painel da equipe",
	"jimhud_teampanels_options_help": "Configura o painel do HUD da sua equipe.",

	"jimhud_panels_position_title": "Posição",
	"jimhud_panels_position_desc": "Posição horizontal do painel do HUD.",
	"jimhud_panels_scale_title": "Escala",
	"jimhud_panels_scale_desc": "Fator de escala do painel do HUD.",
	"jimhud_panels_oppacity_title": "Opacidade",
	"jimhud_panels_oppacity_desc": "Seleciona a opacidade do painel do HUD.",
	"jimhud_panels_show_name_title": "Mostrar nome",
	"jimhud_panels_show_name_desc": "Mostra os nomes dos jogadores.",
	"jimhud_panels_show_rank_title": "Mostrar o Rank",
	"jimhud_panels_rank_name_desc": "Mostrar o rank dos jogadores.",
	"jimhud_panels_truncate_tags_title": "Truncar tags",
	"jimhud_panels_truncate_tags_desc": "Tenta truncar tags de clã dos nomes dos jogadores.",
	"jimhud_panels_show_char_title": "Mostrar personagem",
	"jimhud_panels_show_char_desc": "Mostra o personagem selecionado.",
	"jimhud_panels_show_ping_title": "Mostrar o Ping",
	"jimhud_panels_show_ping_desc": "Mostra o ping entre você e os jogadores.",
	"jimhud_panels_show_status_title": "Mostrar o status",
	"jimhud_panels_show_status_desc": "Mostra o status dos jogadores (HP, colete, etc.)",
	"jimhud_panels_condition_icon_color_title": "Ícone do condição",
	"jimhud_panels_condition_icon_color_desc": "Configura a cor do ícone de condição (caído, detido, swan song, etc.)",
	"jimhud_panels_show_equip_title": "Mostrar equipamento",
	"jimhud_panels_show_equip_desc": "Mostra o equipamento dos jogadores.",
	"jimhud_panels_show_special_equip_title": "Mostrar equipamento especial",
	"jimhud_panels_show_special_equip_desc": "Mostra o equipamento especial que os jogadores pegaram.",
	"jimhud_panels_special_equip_rows_title": "Fileira dos equipamentos especiais",
	"jimhud_panels_special_equip_rows_desc": "Número de itens especiais colocados em uma coluna.",
	"jimhud_panels_show_callsign_title": "Mostrar Chamada",
	"jimhud_panels_show_callsign_desc": "Mostra a chamada feita por aquele jogador.",
	"jimhud_panels_show_stamina_title": "Mostra Stamina",
	"jimhud_panels_show_stamina_desc": "Mostra um círculo de Stamina dentro da barra de vida.",
	"jimhud_panels_show_downcounter_title": "Mostra contagem de quedas",
	"jimhud_panels_show_downcounter_desc": "Mostra um contador de quedas de cada jogador não-AI. \nO contador mostra a sua contagem de quedas e da sua equipe.",
	"jimhud_panels_show_carry_title": "Mostrar Carry",
	"jimhud_panels_show_carry_desc": "Mostra as informações do carry.",
	"jimhud_panels_build_show_title": "Mostrar Build",
	"jimhud_panels_build_show_desc": "Mostra a build dos jogadores.",
	"jimhud_panels_build_time_title": "Tempo de exibição da build",
	"jimhud_panels_build_time_desc": "Mostra a build dos jogadores por X segundos.\n(0 = Sempre)",
	"jimhud_panels_weapon_icon_title": "Icones das armas",
	"jimhud_panels_weapon_icon_desc": "Que ícone de arma você quer ver?",
	"jimhud_panels_weapon_name_title": "Nomes das armas",
	"jimhud_panels_weapon_name_desc": "Exibir os nomes das armas?",
	"jimhud_panels_weapon_ammo_title": "Munição da arma",
	"jimhud_panels_weapon_ammo_desc": "Modo de exibição de munição das armas.",
	"jimhud_panels_weapon_firemode_title": "Modo de tiro da arma",
	"jimhud_panels_weapon_firemode_desc": "Mostra o modo de tiro da arma, ou oculta.",
	"jimhud_panels_hide": "Ocultar",
	"jimhud_panels_selected": "Apenas a selecionada",
	"jimhud_panels_unselected": "Apenas a não selecionada",
	"jimhud_panels_both": "Ambos(as)",
	"jimhud_panels_ammo_total": "Apenas a munição total",
	"jimhud_panels_show_interaction_title": "Mostrar interação",
	"jimhud_panels_show_interaction_desc": "Mostrar a interação dos colegas de equipe.",
	"jimhud_panels_show_interaction_number_title": "Timer de interação",
	"jimhud_panels_show_interaction_number_desc": "Mostra um indicador numérico",
	"jimhud_panels_show_interaction_text_title": "Texto de interação",
	"jimhud_panels_show_interaction_text_desc": "Mostrar texto de interação",
	"jimhud_panels_interaction_time_title": "Duração mínima de interação",
	"jimhud_panels_interaction_time_desc": "Mostrar apenas a interação dos colegas de equipe, se não for mais que X segundos.",
	"jimhud_panels_use_ai_color_title": "Usar cor customizada para o bot",
	"jimhud_panels_use_ai_color_desc": "Usar uma cor customizada para os nomes dos bots. (Também afeta os popups de dano)",
	"jimhud_panels_ai_color_title": "Cor customizada para o bot",
	"jimhud_panels_ai_color_desc": "Configura a cor para usar nos nomes dos bots. (Também afeta os popups de dano)",

	"jimhud_chat_options_name": "Opções do chat",
	"jimhud_chat_options_help": "Opções para o comportamento do chat.",

	"jimhud_chat_waittime_title": "Tempo de desaparecimento do chat",
	"jimhud_chat_waittime_desc": "Quantidade de tempo para o chat desaparecer\n(0 = Nunca)",
	"jimhud_chat_fontsize_title": "Tamanho da fonte do chat",
	"jimhud_chat_fontsize_desc": "Tamanho da fonte do Chat-Box ingame.",
	"jimhud_chat_outputlines_title": "Quantidade máxima de linhas do chat",
	"jimhud_chat_outputlines_desc": "Quantidade máxima de linhas antes de ativar a barra de rolagem.",
	"jimhud_spam_filter_title": "Filtro de spam do chat",
	"jimhud_spam_filter_desc": "Remove as mensagens de spam do PocoHUD e do [NGBTO] do seu chat.",
	"jimhud_chat_width_title": "Largura do Chat",
	"jimhud_chat_width_desc": "Largura da janela do chat",
	"jimhud_chat_inputlines_title": "Quantidade máxima de linhas de chat",
	"jimhud_chat_inputlines_desc": "Número de linhas de texto que você pode digitar",
	"jimhud_chat_colored_bg_title": "Plano de fundo colorido",
	"jimhud_chat_colored_bg_desc": "Colore o fundo da linha baseado na origem da mensagem",
	"jimhud_chat_scrollbar_align_title": "Alinhar Scrollbar",
	"jimhud_chat_scrollbar_align_desc": "Alinhamento da scroll bar",

	"jimhud_suspicion_options_name": "Opções de suspeita",
	"jimhud_suspicion_options_help": "Opções do tamanho do painel de suspeita, assim como os componentes visíveis.",

	"jimhud_suspicion_scale_title": "Escala da suspeita",
	"jimhud_suspicion_scale_desc": "Fator de escala para os elementos do painel de suspeita.",
	"jimhud_susp_eye_title": "Exibir olhar de suspeita",
	"jimhud_susp_eye_desc": "Exibe os elementos padrão de suspeita.",
	"jimhud_susp_numeric_title": "Mostrar suspeita numérica",
	"jimhud_susp_numeric_desc": "Mostrar valor numérico de suspeita.",
	"jimhud_susp_numeric_outline_title": "Contorno preto",
	"jimhud_susp_numeric_outline_desc": "Mostra um contorno preto ao redor do texto numérico de suspeita.",

	"jimhud_killcounter_player_show_killcount_desc": "Exibie um killcounter no seu HUD.",
	"jimhud_killcounter_player_color_desc": "Seleciona a cor do seu killcounter.",
	"jimhud_killcounter_player_show_special_desc": "Exibe as mortes de inimigos especiais separadamente.",
	"jimhud_killcounter_player_show_head_desc": "Exibe os headshots separadamente.",
	"jimhud_killcounter_player_show_accuracy_desc": "Exibe a precisão atual no seu HUD.",
	"jimhud_killcounter_team_show_killcount_desc": "Exibir um killcounter dos membros da equipe.",
	"jimhud_killcounter_team_color_desc": "Seleciona a cor dos killcounters da sua equipe.",
	"jimhud_killcounter_team_show_special_desc": "Exibir mortes de inimigos especiais separadamente.",
	"jimhud_killcounter_team_show_head_desc": "Exibe os headshots separadamente.",
	"jimhud_killcounter_team_show_ai_desc": "Os bots tem um Killcounter também?",
	"jimhud_corpse_limit_title": "Limite de corpos",
	"jimhud_corpse_limit_desc": "Quantos cadáveres devemos permitir ao mesmo tempo?\n(Mudar de mapa é necessário para aplicar...)",

	"jimhud_drivinghud_options_name": "Opções do DrivingHUD",
	"jimhud_drivinghud_options_help": "Algumas opções para o DrivingHUD.",

	"jimhud_show_drivinghud_title": "Mostrar Driving HUD",
	"jimhud_show_drivinghud_desc": "Mostra um pequeno HUD no canto inferior direito enquanto dirige.\n(Mudar de mapa é necessário para aplicar...)",
	"jimhud_drivinghud_scale_title": "Escala",
	"jimhud_drivinghud_scale_desc": "Fator de escala para o DrivingHUD.",
	"jimhud_drivinghud_show_vehicle_title": "Mostrar imagem do veículo",
	"jimhud_drivinghud_show_vehicle_desc": "Mostra uma pequena imagem do veículo e as máscaras dos jogadores com você.",
	"jimhud_drivinghud_show_health_title": "Mostrar o HP",
	"jimhud_drivinghud_show_health_desc": "Exibir a barra de HP do veículo.",
	"jimhud_drivinghud_show_loot_title": "Mostrar Loot",
	"jimhud_drivinghud_show_loot_desc": "Exibe os veículos carregadoe e o número máximo de loot.",
	"jimhud_drivinghud_show_passengers_title": "Mostrar passageiros",
	"jimhud_drivinghud_show_passengers_desc": "Mostra a quantidade de passageiros no veículo e a quantidade total de cadeiras.",
	"jimhud_drivinghud_show_gear_title": "Mostrar equipamento",
	"jimhud_drivinghud_show_gear_desc": "Exibie que equipamento você está dirigindo.",
	"jimhud_drivinghud_show_speed_title": "Mostrar velocidade",
	"jimhud_drivinghud_show_speed_desc": "Exibe a velocidade atual do veículo.",
	"jimhud_drivinghud_speed_in_mph_title": "Velocidade em mph",
	"jimhud_drivinghud_speed_in_mph_desc": "Exibe a velocidade em mph.\n(Caso contrário, usa km/h.)",
	"jimhud_drivinghud_show_rpm_title": "Mostrar RPM",
	"jimhud_drivinghud_show_rpm_desc": "Exibe as RPM do motor do veículo.",

	"jimhud_infopanels_options_name": "Opções do HUD de Informação",
	"jimhud_infopanels_options_help": "Opções das info boxes do HUD List.",

	"jimhud_use_hudlist_title": "Usar HUDList",
	"jimhud_use_hudlist_desc": "O HUDList pode exibir muitas coisas úteis, incluindo. tempo da Drill, inimigos ou quantidade de loot, assets no mapa, etc. (Mudar de mapa é necessário para aplicar...)",
	"jimhud_hudlist_scale_right_title": "Escala da Lista da direita",
	"jimhud_hudlist_scale_right_desc": "Fator de escala dos itens da lista da direita.",
	"jimhud_hudlist_scale_left_title": "Escala da lista da esquerda",
	"jimhud_hudlist_scale_left_desc": "Fator de escala dos itens da lista da esquerda.",
	"jimhud_hudlist_scale_buff_title": "Escala do Buff List",
	"jimhud_hudlist_scale_buff_desc": "Fator de escala dos itens do buff list.",
	"jimhud_hudlist_box_color_title": "Cor da fonte da caixa",
	"jimhud_hudlist_box_color_desc": "Cor da esquerda e da direita das List Boxes.\n(Atualmente mudar de mapa é necessário para aplicar...)",
	"jimhud_hudlist_box_bg_color_title": "Cor de fundo da caixa",
	"jimhud_hudlist_box_bg_color_desc": "Cor de fundo da esquerda e da direita das List Boxes.\n(Atualmente mudar de mapa é necessário para aplicar...)",
	"jimhud_hudlist_civcolor_title": "Cor do civil",
	"jimhud_hudlist_civcolor_desc": "Cor para civis e reféns no contador de inimigos.",
	"jimhud_hudlist_thugcolor_title": "Cor do bandido",
	"jimhud_hudlist_thugcolor_desc": "Cor para os bandidos e mafiosos no contador de inimigos.",
	"jimhud_hudlist_copcolor_title": "Cor dos inimigos",
	"jimhud_hudlist_copcolor_desc": "Cor para os Cops, SWATs e Heavy SWATs no contador de inimigos.",
	"jimhud_hudlist_specialcolor_title": "Cor para os especiais",
	"jimhud_hudlist_specialcolor_desc": "Cor para os cops especiais e Turrets no contador de inimigos.",
	"jimhud_hudlist_progress_alpha_left_title": "Progresso Alpha da esquerda",
	"jimhud_hudlist_progress_alpha_left_desc": "Valor Alpha para as barras de progresso na lista de itens da esquerda.",
	"jimhud_hudlist_progress_alpha_right_title": "Progresso Alpha da direita",
	"jimhud_hudlist_progress_alpha_right_desc": "Valor Alpha para as barras de progresso na lista de itens da direita.",
	"jimhud_hudlist_progress_alpha_buff_title": "Progresso Alpha do Buff",
	"jimhud_hudlist_progress_alpha_buff_desc": "Valor Alpha para as barras de progresso dos itens na lista de buff.",
	"jimhud_hudlist_timers_in_seconds_title": "Timers in seconds",
	"jimhud_hudlist_timers_in_seconds_desc": "Always display timers in seconds.",

	"jimhud_infopanels_left_options_name": "Opções da lista da esquerda",
	"jimhud_infopanels_left_options_help": "Opções para a lista de informações da esquerda.",

	"jimhud_hudlist_show_timers_title": "Mostrar os Timers",
	"jimhud_hudlist_show_timers_desc": "Exibe os tempos das Drills, Hacks, etc.",
	"jimhud_hudlist_show_equipment_desc": "Determina se exibe o equipamento no lado direito da tela.",
	"jimhud_hudlist_show_ammo_bags_title": "Mostrar Ammo Bags",
	"jimhud_hudlist_show_doc_bags_title": "Mostrar Medic Bags",
	"jimhud_hudlist_show_first_aid_kits_title": "Mostrar First Aid Kits",
	"jimhud_hudlist_show_body_bags_title": "Mostrar Body Bags",
	"jimhud_hudlist_show_grenade_crates_title": "Mostrar Granadas",
	"jimhud_hudlist_sentries_title": "Mostrar Sentries",
	"jimhud_hudlist_sentries_desc": "Mostrar HP e munição da Sentry.",
	"jimhud_hudlist_hide_empty_sentries_title": "Ocultar Sentries vazias",
	"jimhud_hudlist_hide_empty_sentries_desc": "Ocultar caixas de sentry vazias.",
	"jimhud_hudlist_show_ecms_title": "Mostrar ECMs",
	"jimhud_hudlist_show_ecms_desc": "Mostrar o Timer das ECM's ",
	"jimhud_hudlist_show_ecm_retrigger_title": "Mostrar ECM reativadas",
	"jimhud_hudlist_show_ecm_retrigger_desc": "Mostrar, quando uma ECM estiver pronta para ser reativada.",
	"jimhud_hudlist_show_minions_title": "Mostrar Jokers",
	"jimhud_hudlist_show_minions_desc": "Mostrar o HP de todos os policiais convertidos.",
	"jimhud_hudlist_show_own_minions_only_title": "Apenas os próprios jokers",
	"jimhud_hudlist_show_own_minions_only_desc": "Exibir apenas os policiais convertidos por você.",
	"jimhud_hudlist_show_pagers_title": "Mostrar Pager",
	"jimhud_hudlist_show_pagers_desc": "Mostrar o tempo restante do pager, antes de ativar o alarme.",
	"jimhud_hudlist_show_tape_loop_title": "Mostrar o  loop da camera",
	"jimhud_hudlist_show_tape_loop_desc": "Mostra a contagem regressiva do loop da camera.",
	"jimhud_hudlist_remove_answered_pagers_title": "Remover o contorno do pager",
	"jimhud_hudlist_remove_answered_pagers_desc": "...se já estiver sendo respondido.",

	"jimhud_infopanels_right_options_name": "Opções da lista da direita",
	"jimhud_infopanels_right_options_help": "Opções para a lista de informações da direita.",

	"jimhud_hudlist_show_enemies_title": "Mostrar inimigos",
	"jimhud_hudlist_show_enemies_desc": "Mostra a quantidade de inimigos no mapa.",
	"jimhud_hudlist_aggregate_enemies_title": "Agregar inimigos",
	"jimhud_hudlist_aggregate_enemies_desc": "Mostra todos os inimigos em uma única info box.",
	"jimhud_hudlist_show_turrets_title": "Mostrar Turrets",
	"jimhud_hudlist_show_turrets_desc": "Mostrar a quantidade de turret vans no mapa.",
	"jimhud_hudlist_show_civilians_title": "Mostrar civis",
	"jimhud_hudlist_show_civilians_desc": "Mostrar quantidade de civis desamarrados no mapa.",
	"jimhud_hudlist_show_hostages_title": "Mostrar reféns",
	"jimhud_hudlist_show_hostages_desc": "mostrar a quantidade de civis amarrados.",
	"jimhud_hudlist_aggregate_hostages_title": "Agregar reféns",
	"jimhud_hudlist_aggregate_hostages_desc": "Mostrar todos os tipos de reféns em uma única info box.",
	"jimhud_hudlist_show_minion_count_title": "Mostrar a quantidade de minions",
	"jimhud_hudlist_show_minion_count_desc": "Mostrar a quantidade de policiais rendidos.",
	"jimhud_hudlist_show_pager_count_title": "Mostrar a quantidade de Pagers",
	"jimhud_hudlist_show_pager_count_desc": "Exibe a quantidade de pagers ativos no stealth.",
	"jimhud_hudlist_show_cam_count_title": "Mostrar quantidade de Cameras",
	"jimhud_hudlist_show_cam_count_desc": "Mostrar quantidade de câmeras ativas no stealth.",
	"jimhud_hudlist_show_bodybags_count_title": "Mostrar quantidade de body bags",
	"jimhud_hudlist_show_bodybags_count_desc": "Mostra a quantidade de bodybags do seu inventário estendido diretamente na sua tela no stealth.",
	"jimhud_hudlist_show_corpse_count_title": "Mostrar quantidade de corpos",
	"jimhud_hudlist_show_corpse_count_desc": "Mostra a quantidade de cadáveres e corpos ensacados no mapa em stealth.",
	"jimhud_hudlist_show_loot_title": "Mostrar o Loot",
	"jimhud_hudlist_show_loot_desc": "Conta o loot ensacável no mapa atual.",
	"jimhud_hudlist_aggregate_loot_title": "Agregar Loot",
	"jimhud_hudlist_aggregate_loot_desc": "Exibe todos os tipos de loot em um único valor.",
	"jimhud_hudlist_separate_bagged_loot_title": "Separar Loot ensacado",
	"jimhud_hudlist_separate_bagged_loot_desc": "Conta o loot ensacado e não ensacado separadamente.",
	"jimhud_hudlist_show_potential_loot_title": "Mostrar o loot em potencial",
	"jimhud_hudlist_show_potential_loot_desc": "Mostra a quantidade de caixas no mapa no contador de loot. \n(Lembre-se, as caixas podem estar vazias...)",
	"jimhud_hudlist_show_special_pickups_title": "Mostrar Pickups especiais",
	"jimhud_hudlist_show_special_pickups_desc": "Mostra a quantidade de químicos, keycards e outras coisas presentes no mapa.",
	"jimhud_hudlist_show_mission_pickups_title": "Mostrar Pickups da Missão presentes no mapa",
	"jimhud_hudlist_show_mission_pickups_desc": "Mostra a quantidade de químicos, keycards, tábuas e outros pickups da missão presentes no mapa.",
	"jimhud_hudlist_show_collectables_pickups_title": "Mostrar os pickups coletáveis",
	"jimhud_hudlist_show_collectables_pickups_desc": "Mostra a quantidade de pacotes do gage, Caixas do Spec-Ops, Keys presentes no mapa.",
	"jimhud_hudlist_show_valuables_pickups_title": "Mostrar Loot pickups presentes no mapa",
	"jimhud_hudlist_show_valuables_pickups_desc": "Mostra a quantidade de itens valiosos, como pacotes de dinheiro ou colares presentes no mapa.",

	"jimhud_infopanels_buff_options_name": "Opções da lista de buffs",
	"jimhud_infopanels_buff_options_help": "Opções para a lista de informações de buffs.",

	"jimhud_infopanels_buff_mastermind_options_name": "Mastermind Skills",
	"jimhud_infopanels_buff_mastermind_options_help": "Ativa ou desativa os indicadores visuais para as Skills de Mastermind.",
	"jimhud_infopanels_buff_enforcer_options_name": "Enforcer Skills",
	"jimhud_infopanels_buff_enforcer_options_help": "Enable or Disable visual indicators for Enforcer Skills.",
	"jimhud_infopanels_buff_technician_options_name": "Technician Skills",
	"jimhud_infopanels_buff_technician_options_help": "Ativa ou desativa os indicadores visuais para as Skills de Technician.",
	"jimhud_infopanels_buff_ghost_options_name": "Ghost Skills",
	"jimhud_infopanels_buff_ghost_options_help": "Ativa ou desativa os indicadores visuais para as Skills de Ghost.",
	"jimhud_infopanels_buff_fugitive_options_name": "Fugitive Skills",
	"jimhud_infopanels_buff_fugitive_options_help": "Ativa ou desativa os indicadores visuais para as Skills de Fugitive.",
	"jimhud_infopanels_buff_perkdecks_options_name": "Perk Decks",
	"jimhud_infopanels_buff_perkdecks_options_help": "Ativa ou desativa os indicadores visuais para os Perk Decks.",
	"jimhud_infopanels_buff_gageboosts_options_name": "Gage Boosts",
	"jimhud_infopanels_buff_gageboosts_options_help": "Ativa ou desativa os indicadores visuais para os Gage Boosts.",
	"jimhud_infopanels_buff_henchmen_options_name": "Henchmen Skills",
	"jimhud_infopanels_buff_henchmen_options_help": "Ativa ou desativa os indicadores visuais para as Skills de Henchmen.",

	"jimhud_hudlist_show_buffs_title": "Mostrar Buffs",
	"jimhud_hudlist_show_buffs_desc": "Exibe os Buffs ativos na parte de baixo no centro da tela.",
	"jimhud_hudlist_damage_increase_compbuff_title": "Buff de aumento de dano",
	"jimhud_hudlist_damage_increase_compbuff_desc": "Item de Buff composto, exibe o valor de toda a habilidade de dano adicionada.",
	"jimhud_hudlist_damage_reduction_compbuff_title": "Buff de redução de dano",
	"jimhud_hudlist_damage_reduction_compbuff_desc": "Item de Buff composto, exibe o valor de toda a habilidade de redução de dano adicionada.",
	"jimhud_hudlist_melee_damage_increase_compbuff_title": "Buff de aumento de dano com melee",
	"jimhud_hudlist_melee_damage_increase_compbuff_desc": "Item de Buff composto, exibe o valor de toda a habilidade de dano com melee adicionada.",
	"jimhud_hudlist_passive_health_regen_compbuff_title": "Regeneração de vida passiva",
	"jimhud_hudlist_passive_health_regen_compbuff_desc": "Item de Buff composto, exibe o valor de todo o efeito de regeneração de vida passiva.",
	"jimhud_hudlist_total_dodge_chance_compbuff_title": "Chance total de dodge",
	"jimhud_hudlist_total_dodge_chance_compbuff_desc": "Item de Buff composto, exibe o valor de toda a habilidade de dodge adicionada.",
	"jimhud_hudlist_aggressive_reload_aced_buff_title": "Aggressive Reload",
	"jimhud_hudlist_aggressive_reload_aced_buff_desc": "",
	"jimhud_hudlist_ammo_efficiency_buff_title": "Ammo Efficiency",
	"jimhud_hudlist_ammo_efficiency_buff_desc": "",
	"jimhud_hudlist_armor_break_invulnerable_buff_title": "Blitzkrieg Bop (Anarchist)",
	"jimhud_hudlist_armor_break_invulnerable_buff_desc": "",
	"jimhud_hudlist_berserker_buff_title": "Berserker",
	"jimhud_hudlist_berserker_buff_desc": "Parte dos Buffs compostos.",
	"jimhud_hudlist_biker_buff_title": "Regen Debuff (Biker)",
	"jimhud_hudlist_biker_buff_desc": "",
	"jimhud_hudlist_bloodthirst_basic_buff_title": "Bloodthirst (Basic)",
	"jimhud_hudlist_bloodthirst_basic_buff_desc": "Parte dos Buffs compostos.",
	"jimhud_hudlist_bloodthirst_aced_buff_title": "Bloodthirst (Aced)",
	"jimhud_hudlist_bloodthirst_aced_buff_desc": "",
	"jimhud_hudlist_bullet_storm_buff_title": "Bullet Storm",
	"jimhud_hudlist_bullet_storm_buff_desc": "",
	"jimhud_hudlist_close_contact_buff_title": "Close Contact (Infiltrator)",
	"jimhud_hudlist_close_contact_buff_desc": "Parte dos Buffs compostos.",
	"jimhud_hudlist_combat_medic_buff_title": "Combat Medic (Active)",
	"jimhud_hudlist_combat_medic_buff_desc": "Parte dos Buffs compostos.",
	"jimhud_hudlist_combat_medic_passive_buff_title": "Combat Medic (Passive)",
	"jimhud_hudlist_combat_medic_passive_buff_desc": "Parte dos Buffs compostos.",
	"jimhud_hudlist_desperado_buff_title": "Desperado",
	"jimhud_hudlist_desperado_buff_desc": "",
	"jimhud_hudlist_die_hard_buff_title": "Die Hard",
	"jimhud_hudlist_die_hard_buff_desc": "Parte dos Buffs compostos.",
	"jimhud_hudlist_dire_need_buff_title": "Dire Need",
	"jimhud_hudlist_dire_need_buff_desc": "",
	"jimhud_hudlist_frenzy_buff_title": "Frenzy",
	"jimhud_hudlist_frenzy_buff_desc": "Parte dos Buffs compostos.",
	"jimhud_hudlist_grinder_buff_title": "Health Regen (Grinder)",
	"jimhud_hudlist_grinder_buff_desc": "",
	"jimhud_hudlist_chico_injector_buff_title": "Injector Duration (Kingpin)",
	"jimhud_hudlist_chico_injector_buff_desc": "",
	"jimhud_hudlist_damage_control_debuff_title": "Flask Duration (Stoic)",
	"jimhud_hudlist_damage_control_debuff_desc": "",
	"jimhud_hudlist_delayed_damage_buff_title": "Delayed Damage (Stoic)",
	"jimhud_hudlist_delayed_damage_buff_desc": "",
	"jimhud_hudlist_hostage_situation_buff_title": "Hostage Situation (Crew Chief)",
	"jimhud_hudlist_hostage_situation_buff_desc": "Parte dos Buffs compostos.",
	"jimhud_hudlist_hostage_taker_buff_title": "Hostage Taker",
	"jimhud_hudlist_hostage_taker_buff_desc": "",
	"jimhud_hudlist_inspire_buff_title": "Inspire (Boost)",
	"jimhud_hudlist_inspire_buff_desc": "",
	"jimhud_hudlist_lock_n_load_buff_title": "Lock 'n' Load",
	"jimhud_hudlist_lock_n_load_buff_desc": "",
	"jimhud_hudlist_melee_stack_damage_buff_title": "Melee Stack damage (Infiltrator)",
	"jimhud_hudlist_melee_stack_damage_buff_desc": "Parte dos Buffs compostos.",
	"jimhud_hudlist_maniac_buff_title": "Damage Reduction (Maniac)",
	"jimhud_hudlist_maniac_buff_desc": "",
	"jimhud_hudlist_muscle_regen_buff_title": "Health Regen (Muscle)",
	"jimhud_hudlist_muscle_regen_buff_desc": "",
	"jimhud_hudlist_messiah_buff_title": "Messiah",
	"jimhud_hudlist_messiah_buff_desc": "",
	"jimhud_hudlist_overdog_buff_title": "Overdog (Infiltrator)",
	"jimhud_hudlist_overdog_buff_desc": "",
	"jimhud_hudlist_overkill_buff_title": "Overkill",
	"jimhud_hudlist_overkill_buff_desc": "Parte dos Buffs compostos.",
	"jimhud_hudlist_painkiller_buff_title": "Painkiller",
	"jimhud_hudlist_painkiller_buff_desc": "Parte dos Buffs compostos.",
	"jimhud_hudlist_partner_in_crime_buff_title": "Partner in Crime",
	"jimhud_hudlist_partner_in_crime_buff_desc": "Parte dos Buffs compostos.",
	"jimhud_hudlist_running_from_death_buff_title": "Running from Death",
	"jimhud_hudlist_running_from_death_buff_desc": "",
	"jimhud_hudlist_pocket_ecm_jammer_buff_title": "Pocket ECM Duration (Hacker)",
	"jimhud_hudlist_pocket_ecm_jammer_buff_desc": "",
	"jimhud_hudlist_pocket_ecm_kill_dodge_buff_title": "Pocket ECM Dodge (Hacker)",
	"jimhud_hudlist_pocket_ecm_kill_dodge_buff_desc": "Part of Composite Buffs.",
	"jimhud_hudlist_quick_fix_buff_title": "Quick Fix",
	"jimhud_hudlist_quick_fix_buff_desc": "Parte dos Buffs compostos.",
	"jimhud_hudlist_second_wind_buff_title": "Second Wind",
	"jimhud_hudlist_second_wind_buff_desc": "",
	"jimhud_hudlist_sixth_sense_buff_title": "Sixth Sense",
	"jimhud_hudlist_sixth_sense_buff_desc": "",
	"jimhud_hudlist_sicario_dodge_buff_title": "Additional Dodge (Sicario)",
	"jimhud_hudlist_sicario_dodge_buff_desc": "",
	"jimhud_hudlist_smoke_screen_buff_title": "Smoke Bomb (Sicario)",
	"jimhud_hudlist_smoke_screen_buff_desc": "",
	"jimhud_hudlist_tag_team_buff_title": "Gas Dispenser (Tag Team)",
	"jimhud_hudlist_tag_team_buff_desc": "",
	"jimhud_hudlist_swan_song_buff_title": "Swan Song",
	"jimhud_hudlist_swan_song_buff_desc": "",
	"jimhud_hudlist_tooth_and_claw_buff_title": "Tooth and Claw (Hitman)",
	"jimhud_hudlist_tooth_and_claw_buff_desc": "",
	"jimhud_hudlist_trigger_happy_buff_title": "Trigger Happy",
	"jimhud_hudlist_trigger_happy_buff_desc": "Parte dos Buffs compostos.",
	"jimhud_hudlist_underdog_buff_title": "Underdog",
	"jimhud_hudlist_underdog_buff_desc": "Parte dos Buffs compostos.",
	"jimhud_hudlist_unseen_strike_buff_title": "Unseen Strike",
	"jimhud_hudlist_unseen_strike_buff_desc": "",
	"jimhud_hudlist_up_you_go_buff_title": "Up you Go",
	"jimhud_hudlist_up_you_go_buff_desc": "Parte dos Buffs compostos.",
	"jimhud_hudlist_uppers_buff_title": "Uppers",
	"jimhud_hudlist_uppers_buff_desc": "",
	"jimhud_hudlist_yakuza_buff_title": "Armor Regen Speed (Yakuza)",
	"jimhud_hudlist_yakuza_buff_desc": "",
	"jimhud_hudlist_anarchist_armor_recovery_debuff_title": "Lust for Life (Anarchist)",
	"jimhud_hudlist_anarchist_armor_recovery_debuff_desc": "",
	"jimhud_hudlist_ammo_give_out_debuff_title": "Ammo give out Debuff (Gambler)",
	"jimhud_hudlist_ammo_give_out_debuff_desc": "",
	"jimhud_hudlist_bullseye_debuff_title": "Bullseye Debuff",
	"jimhud_hudlist_bullseye_debuff_desc": "",
	"jimhud_hudlist_inspire_debuff_title": "Inspire Boost Debuff",
	"jimhud_hudlist_inspire_debuff_desc": "",
	"jimhud_hudlist_inspire_revive_debuff_title": "Inspire Revive Debuff",
	"jimhud_hudlist_inspire_revive_debuff_desc": "",
	"jimhud_hudlist_life_drain_debuff_title": "Life Drain Debuff (Infiltrator)",
	"jimhud_hudlist_life_drain_debuff_desc": "",
	"jimhud_hudlist_medical_supplies_debuff_title": "Medical Supplies Debuff (Gambler)",
	"jimhud_hudlist_medical_supplies_debuff_desc": "",
	"jimhud_hudlist_sociopath_debuff_title": "Regen Debuff (Sociopath)",
	"jimhud_hudlist_sociopath_debuff_desc": "",
	"jimhud_hudlist_armorer_teambuff_title": "Armor Increase Teambuff (Armorer)",
	"jimhud_hudlist_armorer_teambuff_desc": "",
	"jimhud_hudlist_bulletproof_teambuff_title": "Bulletproof Teambuff",
	"jimhud_hudlist_bulletproof_teambuff_desc": "",
	"jimhud_hudlist_crew_chief_teambuff_title": "Increased Stats Teambuff (Crew Chief)",
	"jimhud_hudlist_crew_chief_teambuff_desc": "Part of Composite Buffs.",
	"jimhud_hudlist_forced_friendship_teambuff_title": "Forced Friendship Teambuff",
	"jimhud_hudlist_forced_friendship_teambuff_desc": "",
	"jimhud_hudlist_life_steal_gage_debuff_title": "Life Steal",
	"jimhud_hudlist_life_steal_gage_debuff_desc": "",
	"jimhud_hudlist_invulnerable_gage_buff_title": "Invulnerability",
	"jimhud_hudlist_invulnerable_gage_buff_desc": "",
	"jimhud_hudlist_crew_inspire_debuff_title": "Inspiring",
	"jimhud_hudlist_crew_inspire_debuff_desc": "",
	"jimhud_hudlist_crew_throwable_regen_buff_title": "Stockpiler",
	"jimhud_hudlist_crew_throwable_regen_buff_desc": "",
	"jimhud_hudlist_crew_health_regen_buff_title": "Healer",
	"jimhud_hudlist_crew_health_regen_buff_desc": "",

	"jimhud_waypoints_options_name": "Opções do Custom Waypoints",
	"jimhud_waypoints_options_help": "Opções para o controle do Custom Waypoints.",

	"jimhud_waypoints_color_title": "Cor dos Waypoints",
	"jimhud_waypoints_color_desc": "A cor para os waypoints padrão da missão.",
	"jimhud_waypoints_show_ammo_bag_title": "Mostrar Ammo Bags",
	"jimhud_waypoints_show_ammo_bag_desc": "Mostra Waypoints para as Ammo bags, com a porcentagem de munição restante.",
	"jimhud_waypoints_show_doc_bag_title": "Mostrar Doctor Bags",
	"jimhud_waypoints_show_doc_bag_desc": "Mostra os Waypoints para as Doctor Bags, com o números de cargas restante.",
	"jimhud_waypoints_show_first_aid_kit_title": "Mostrar First Aid Kits",
	"jimhud_waypoints_show_first_aid_kit_desc": "Mostra os Waypoints para as First Aid Kits, com os seus efeitos de skill.",
	"jimhud_waypoints_show_body_bag_title": "Mostrar Bodybag Case",
	"jimhud_waypoints_show_body_bag_desc": "Mostra os Waypoints para as bodybag cases, com a quantidade de Bodybags restantes.",
	"jimhud_waypoints_show_grenade_crate_title": "Mostrar Grenade Case",
	"jimhud_waypoints_show_grenade_crate_desc": "Mostrar os Waypoints para as Grenade Cases, com a quantidade de granadas restante.",
	"jimhud_waypoints_show_sentries_title": "Mostrar Sentries",
	"jimhud_waypoints_show_sentries_desc": "Mostra os Waypoints para as Sentries, com a quantidade de munição restante.",
	"jimhud_waypoints_show_ecms_title": "Mostrar ECMs",
	"jimhud_waypoints_show_ecms_desc": "Mostra os Waypoints para as ECMs, com a bateria restante e a duração do feedback.",
	"jimhud_waypoints_show_timers_title": "Mostrar Timers",
	"jimhud_waypoints_show_timers_desc": "Mostra os Waypoints para os timers, com o tempo restante e upgrades ativos.",
	"jimhud_waypoints_show_loot_title": "Mostrar Loot",
	"jimhud_waypoints_show_loot_desc": "Mostra o nome do loot sobre ele, quando olhar de perto.",
	"jimhud_waypoints_loot_icon_title": "Ícone da Bag",
	"jimhud_waypoints_loot_icon_desc": "Mostra um ícone da bag no loot ensacado.",
	"jimhud_waypoints_loot_offset_title": "Deslocamento de altura",
	"jimhud_waypoints_loot_offset_desc": "Configura o deslocamento de altura do rótulo de texto no loot.",
	"jimhud_waypoints_loot_bagged_offset_title": "Compensação de altura do loot ensacado",
	"jimhud_waypoints_loot_bagged_offset_desc": "Configura a compensação de altura do rótulo de texto do loot ensacado.",
	"jimhud_waypoints_loot_angle_title": "Ângulo visível",
	"jimhud_waypoints_loot_angle_desc": "Configura o ângulo do texto visível.",
	"jimhud_waypoints_show_special_equipment_title": "Mostrar equipamento especial",
	"jimhud_waypoints_show_special_equipment_desc": "Mostra os waypoints para vários equipamentos diferentes. Bom para aprender as diferentes localizações.",
	"jimhud_waypoints_show_minions_title": "Mostrar os Minions",
	"jimhud_waypoints_show_minions_desc": "Mostra o nome do minion acima da cabeça dele, da cor do player que o converteu.\nTambém exibe a Killcount dele.",
	"jimhud_waypoints_show_pager_title": "Mostrar Pager",
	"jimhud_waypoints_show_pager_desc": "Mostra um waypoint para os pagers ativos. Muda a cor dele, quando alguém está respondendo.",

	"jimhud_tabstats_options_name": "Opções do TabStats",
	"jimhud_tabstats_options_help": "Configure o visual do seu Tabscreen.",

	"jimhud_tabstats_clock_mode_title": "Formato do relógio",
	"jimhud_tabstats_clock_mode_desc": "Qual o formato que o relógio usa?",
	"jimhud_tabstats_clock_mode_a": "12-h",
	"jimhud_tabstats_clock_mode_b": "24-h",
	"jimhud_tabstats_clock_mode_c": "Tempo do assalto",
	"jimhud_use_tabstats_desc": "Mostra suas estatísticas na tela de inventário estendido, em vez do sumário da missão.\n(Uma mudança de mapa é necessária para aplicar...)",
	"jimhud_tabstats_font_size_title": "Tamanho da fonte da lista",
	"jimhud_tabstats_font_size_desc": "Tamanho da fonte da lista avançada de estatísticas.",
	"jimhud_tabstats_color_title": "Cor da lista",
	"jimhud_tabstats_color_desc": "Cor da lista avançada de estatísticas.",
	"jimhud_tabstats_actual_mask_title": "Usar máscara vigente",
	"jimhud_tabstats_actual_mask_desc": "Usa a máscara vigente em vez da máscara do personagem.",
	"jimhud_tabstats_numeric_loot_title": "Contador numérico de loot",
	"jimhud_tabstats_numeric_loot_desc": "Desativa o minigame de contagem de sacos e mostra o número imediato.",

	"jimhud_dmgindicator_options_name": "Indicador de dano",
	"jimhud_dmgindicator_options_help": "Configura o tempo de desaparecimento, o tamanho e cor ou os seus indicadores de dano.",

	"jimhud_show_dmg_indicator_title": "Indicador de dano dinâmico",
	"jimhud_show_dmg_indicator_desc": "Transforma os 4 indicadores de danos estáticos em vários tipos dinâmicos, movendo-se de acordo com sua posição e a posição da qual você foi danificado.",
	"jimhud_dmg_ind_time_title": "Duração do indicador",
	"jimhud_dmg_ind_time_desc": "Determina o tempo que o indicador será mostrado.",
	"jimhud_dmg_ind_size_title": "Tamanho do indicador",
	"jimhud_dmg_ind_size_desc": "Determina o tamanho do círculo e os indicadores são colocados ao redor.",
	"jimhud_dmg_indicator_max_count_title": "Contagem máxima de indicadores",
	"jimhud_dmg_indicator_max_count_desc": "Especifica a quantidade máxima de indicadores de dano na tela.",
	"jimhud_dmg_shield_color_title": "Cor do colete",
	"jimhud_dmg_shield_color_desc": "Cor do indicador, quando apenas você perder armor.",
	"jimhud_dmg_health_color_title": "Cor do HP",
	"jimhud_dmg_health_color_desc": "Cor do indicador, quando você perder saúde.",
	"jimhud_dmg_crit_color_title": "Cor de vida baixo",
	"jimhud_dmg_crit_color_desc": "Cor do indicador, quando a vida estiver baixando.",
	"jimhud_dmg_vehicle_color_title": "Cor do veículo",
	"jimhud_dmg_vehicle_color_desc": "Cor do indicador, quando o veículo que você está levar dano.",
	"jimhud_dmg_friendlyfire_color_title": "Cor do fogo amigo",
	"jimhud_dmg_friendlyfire_color_desc": "Cor do indicador, quando você levar dano de tiro ou explosivos.",

	"jimhud_dmgpopup_options_name": "Popup de dano no inimigo",
	"jimhud_dmgpopup_options_help": "Um Popup próximo da cabeça dos inimigos, exibindo o dano tomado.",

	"jimhud_show_dmg_popup_title": "Exibir Popup de dano",
	"jimhud_show_dmg_popup_desc": "Ativa o popup de dano.",
	"jimhud_dmg_popup_player": "Jogador",
	"jimhud_dmg_popup_all": "Todos",
	"jimhud_dmg_popup_scale_title": "Escala do Popup",
	"jimhud_dmg_popup_scale_desc": "Muda o tamanho dos popups de dano.",
	"jimhud_dmg_popup_skull_scale_title": "Escala da caveira",
	"jimhud_dmg_popup_skull_scale_desc": "Muda o tamanho do ícone da caveira quando matar um inimigo.",
	"jimhud_dmg_popup_skull_align_title": "Posição da caveira",
	"jimhud_dmg_popup_skull_align_desc": "Muda o alinhamento do ícone da caveira quando matar um inimigo.",
	"jimhud_dmg_popup_time_title": "Tempo do Popup",
	"jimhud_dmg_popup_time_desc": "Determina quanto tempo o popup vai ficar.",
	"jimhud_dmg_popup_height_title": "Altura do Popup",
	"jimhud_dmg_popup_height_desc": "Determina quão alto o popup aperecerá sobre o inimigo.",
	"jimhud_dmg_popup_alpha_title": "Opacidade do Popup",
	"jimhud_dmg_popup_alpha_desc": "Configura a opacidade do popup.",
	"jimhud_dmg_popup_color_title": "Popup do BodyShots",
	"jimhud_dmg_popup_color_desc": "Configura a cor do popup para os tiros no corpo",
	"jimhud_dmg_popup_critical_color_title": "Popup de dano crítico",
	"jimhud_dmg_popup_critical_color_desc": "Configura a cor do popup para danos críticos.",
	"jimhud_dmg_popup_headshot_color_title": "Popup dos Headshots",
	"jimhud_dmg_popup_headshot_color_desc": "Configura a cor do popup para headshots.",

	"jimhud_enemyhealthbar_options_name": "Barra de vida do inimigo",
	"jimhud_enemyhealthbar_options_help": "Determine quais unidades tem uma barra de vida.",

	"jimhud_show_enemyhealthbar_title": "Mostrar barra de vida do inimigo",
	"jimhud_show_enemyhealthbar_desc": "Exibe uma barra de vida no centro da tela, ao almejar um inimigo.\n(Uma mudança de mapa é necessária para aplicar...)",
	"jimhud_show_civhealthbar_title": "Barra de vida dos civis",
	"jimhud_show_civhealthbar_desc": "Também mostra uma barra de vida para os civis e a IA aliada.",
	"jimhud_show_carhealthbar_title": "Mostrar barra de vida dos veículos",
	"jimhud_show_carhealthbar_desc": "Mostra uma barra de vida para veículos dirigíveis.",
	"jimhud_show_healthbar_pointer_title": "Mostrar cursor",
	"jimhud_show_healthbar_pointer_desc": "Mostra uma flecha abaixo da barra de vida, indicando o dono da barra de vida.",

	"jimhud_press2hold_lock_mode_title": "Modo Lock",
	"jimhud_press2hold_lock_mode_desc": "Trava, quando a interação for maior que X segundos. (Progresso)\nTrava, quando o tempo total de interação for maior que X segundos. (Total)",
	"jimhud_press2hold_lock_mode_a": "Progresso",
	"jimhud_press2hold_lock_mode_b": "Total",
	"jimhud_press2hold_lock_mode_c": "Pagers+lockpick",
	"jimhud_press2hold_lock_mode_d": "Apenas Pagers",
	"jimhud_press2hold_min_timer_duration_title": "Tempo minímo de duração",
	"jimhud_press2hold_min_timer_duration_desc": "A duração mínima para a interação travar.",
	"jimhud_press2hold_show_lockindicator_title": "Mostrar indicador de trava",
	"jimhud_press2hold_show_lockindicator_desc": "Mostrar círculo de sobreposição vermelho/verde transparente, para indicar que o tempo de duração está travado ou não.",
	"jimhud_press2hold_equipment_cancel_title": "Interrupção de Equipamento",
	"jimhud_press2hold_equipment_cancel_desc": "Interrompe a interação travada com o seu equipamento.\n(Caso contrário pressione a tecla de duração novamente.)",
	"jimhud_press2hold_interrupt_hint_title": "Mostrar sugestão de interrupção",
	"jimhud_press2hold_interrupt_hint_desc": "Exibe um texto para lembrar que botão interromperá a sua interação.",
	"jimhud_press2hold_show_timer_title": "Mostrar tempo restante",
	"jimhud_press2hold_show_timer_desc": "Exibe o tempo restante dentro do circulo de interação.",
	"jimhud_press2hold_show_circle_title": "Mostrar círculo de interação",
	"jimhud_press2hold_show_circle_desc": "Determina se o círculo de interação padrão deve ser exibido.",
	"jimhud_press2hold_circle_scale_title": "Escala do círculo",
	"jimhud_press2hold_circle_scale_desc": "Fator de escala do circulo de interação.",
	"jimhud_press2hold_timer_scale_title": "Escala do timer",
	"jimhud_press2hold_timer_scale_desc": "Fator de escala do timer do centro (Leva em conta a escala do círculo).",
	"jimhud_press2hold_text_scale_title": "Escala do texto",
	"jimhud_press2hold_text_scale_desc": "Fator de escala do texto de interação abaixo do círculo.",
	"jimhud_press2hold_show_reload_circle_title": "Mostrar o tempo de reload",
	"jimhud_press2hold_show_reload_circle_desc": "Determina se deve exibir o  tempo de recarregamento da arma no hud.",
	"jimhud_press2hold_show_melee_circle_title": "Mostrar carregamento de melee",
	"jimhud_press2hold_show_melee_circle_desc": "Determina se deve exibir o tempo que leva para carregar um golpe, no hud em forma de interação.",
	"jimhud_press2hold_timer_color_start_title": "Cor do timer (Início)",
	"jimhud_press2hold_timer_color_start_desc": "Cor para o timer de início.",
	"jimhud_press2hold_timer_color_title": "Cor do timer (Fim)",
	"jimhud_press2hold_timer_color_desc": "Cor para o timer a ser concluido.",
	"jimhud_press2hold_show_timer_outline_title": "Contorno preto",
	"jimhud_press2hold_show_timer_outline_desc": "Mostra um contorno preto ao redor do texto de tempo restante.",
	"jimhud_doubletap_nades_stealth_title": "Supressão de granadas no Stealth",
	"jimhud_doubletap_nades_stealth_desc": "Quando marcado, você precisa apertar a tecla 2x para arremessar uma granada no stealth. \nApenas para prevenir acidentes.",
	"jimhud_hold_to_pick_title": "Pickup automático",
	"jimhud_hold_to_pick_desc": "Todo loot pequeno será pego automaticamente, enquanto a tecla de interação estiver pressionada.",

	"jimhud_inventory_options_name": "Opções de melhoria no inventário",
	"jimhud_inventory_options_help": "Opções para mudar o visual e o comportamento do seu inventário.",

	"jimhud_equipment_senty_auto_ap_title": "Modo AP automático da Sentry",
	"jimhud_equipment_senty_auto_ap_desc": "As Sentries vão dar spawn em modo AP, se você tiver a Skill.",
	"jimhud_equipment_tripmine_auto_sensor_stealth_title": "Trip-Mine com modo sensor automático",
	"jimhud_equipment_tripmine_auto_sensor_stealth_desc": "Trip-Mines vão dar spawn em modo Sensor, no stealth.",
	"jimhud_equipment_ecm_feedback_disabled_stealth_title": "Supressão de feedback do ECM",
	"jimhud_equipment_ecm_feedback_disabled_stealth_desc": "ECM Feedback será desativado no stealth.(para evitar acidentes)",
	"jimhud_equipment_shaped_charge_disabled_stealth_title": "Supressão da Shaped Charge",
	"jimhud_equipment_shaped_charge_disabled_stealth_desc": "Quando marcado, você precisa apertar a tecla 2x para dar deploy em shaped charges no stealth. \nApenas para prevenir acidentes.",
	"jimhud_equipment_keycard_doors_disabled_title": "Supressão de Keycard para portas",
	"jimhud_equipment_keycard_doors_disabled_desc": "Quando marcado, você precisa apertar a tecla 2x para fechar portas na hoxton breakout dia 2. \nApenas para prevenir acidentes.",

	"jimhud_laser_autoon_title": "Ativar laser automaticamente",
	"jimhud_laser_autoon_desc": "Ativa o laser automaticamente ao iniciar, nas armas que o possui.",
	"jimhud_show_angeled_sight_title": "Mostra mira angulada",
	"jimhud_show_angeled_sight_desc": "Inclina a arma na sua mão, enquanto a mira angulada estiver habilitada.",

	"jimhud_gadget_player_laser_options_name": "Laser do jogador",
	"jimhud_gadget_player_laser_options_help": "Configuração do seu laser.",
	"jimhud_gadget_player_sentry_laser_options_name": "Opções para a Sentry do jogador",
	"jimhud_gadget_player_sentry_laser_options_help": "Configurações para os lasers das sentries.",
	"jimhud_gadget_team_laser_options_name": "Lasers da equipe",
	"jimhud_gadget_team_laser_options_help": "Opções para os lasers da equipe.",
	"jimhud_gadget_team_sentry_laser_options_name": "Lasers das Sentries da equipe",
	"jimhud_gadget_team_sentry_laser_options_help": "Opções para os lasers das Sentries da equipe.",
	"jimhud_gadget_sniper_laser_options_name": "Laser do Sniper",
	"jimhud_gadget_sniper_laser_options_help": "Configuração para o laser dos snipers inimigos.",
	"jimhud_gadget_turret_laser_active_options_name": "Laser da turret (ativa)",
	"jimhud_gadget_turret_laser_active_options_help": "Configuração do lasers para a SWAT Turret ativa.",
	"jimhud_gadget_turret_laser_rearming_options_name": "Laser da turret (Rearmando)",
	"jimhud_gadget_turret_laser_rearming_options_help": "Configuraçes para o Laser da SWAT turret recarregando.",
	"jimhud_gadget_turret_laser_mad_options_name": "Laser da Turret (Doidona)",
	"jimhud_gadget_turret_laser_mad_options_help": "Configuraçes de laser para a SWAT turret sob o efeito de ECM.",
	"jimhud_gadget_player_flashlight_options_name": "Lanterna do jogador",
	"jimhud_gadget_player_flashlight_options_help": "Configuraçes para a sua lanterna.",
	"jimhud_gadget_team_flashlight_options_name": "Lanterna da equipe",
	"jimhud_gadget_team_flashlight_options_help": "Opções para as lanternas da equipe.",

	"jimhud_gadgets_enabled_title": "Sobrescrever Cor",
	"jimhud_gadgets_enabled_desc": "Usar esta definição em vez da configuração do gadget.",
	"jimhud_gadgets_beam_r_title": "Feixe de Laser (R)",
	"jimhud_gadgets_beam_r_desc": "Componente de cor vermelha do laser.",
	"jimhud_gadgets_beam_g_title": "Feixe de Laser (G)",
	"jimhud_gadgets_beam_g_desc": "Componente de cor verde do laser.",
	"jimhud_gadgets_beam_b_title": "Laser Beam (B)",
	"jimhud_gadgets_beam_b_desc": "Componente de cor azul do laser.",
	"jimhud_gadgets_beam_a_title": "Feixe de laser Alpha",
	"jimhud_gadgets_beam_a_desc": "Opacidade do feixe de laser.",
	"jimhud_gadgets_dot_match_title": "Cor do ponto",
	"jimhud_gadgets_dot_match_desc": "Determina, se o ponto e o feixe do laser devem ser da mesma cor.",
	"jimhud_gadgets_dot_r_title": "Ponto do Laser (R)",
	"jimhud_gadgets_dot_r_desc": "Componente de ponto na cor vermelha.",
	"jimhud_gadgets_dot_g_title": "Ponto do laser (G)",
	"jimhud_gadgets_dot_g_desc": "Componente de ponto na cor verde.",
	"jimhud_gadgets_dot_b_title": "Ponto do laser (B)",
	"jimhud_gadgets_dot_b_desc": "Componente de ponto na cor azul.",
	"jimhud_gadgets_dot_a_title": "Alpha do ponto do laser",
	"jimhud_gadgets_dot_a_desc": "Opacidade do ponto do laser.",
	"jimhud_gadgets_glow_match_title": "Cor do brilho",
	"jimhud_gadgets_glow_match_desc": "Determina, se a cor do brilho do laser deve ser igual ao do feixe.",
	"jimhud_gadgets_glow_r_title": "Brilho do laser (R)",
	"jimhud_gadgets_glow_r_desc": "Componente brilho do laser de cor vermelha.",
	"jimhud_gadgets_glow_g_title": "Brilho do laser (G)",
	"jimhud_gadgets_glow_g_desc": "Componente brilho do laser de cor verde.",
	"jimhud_gadgets_glow_b_title": "Brilho do laser (B)",
	"jimhud_gadgets_glow_b_desc": "Componente brilho do laser de cor azul.",
	"jimhud_gadgets_glow_a_title": "Alpha do brilho do laser",
	"jimhud_gadgets_glow_a_desc": "Opacidade do brilho do laser.",
	"jimhud_gadgets_light_r_title": "Lanterna (R)",
	"jimhud_gadgets_light_r_desc": "Componente da lanterna de cor vermelha.",
	"jimhud_gadgets_light_g_title": "Lanterna (G)",
	"jimhud_gadgets_light_g_desc": "Componente da lanterna de cor verde.",
	"jimhud_gadgets_light_b_title": "Lanterna (B)",
	"jimhud_gadgets_light_b_desc": "Componente da lanterna de cor azul.",
	"jimhud_gadgets_light_brightness_title": "Brilho da lanterna",
	"jimhud_gadgets_light_brightness_desc": "Intensidade do brilho da lanterna.",
	"jimhud_gadgets_light_angle_title": "Angulo da lanterna",
	"jimhud_gadgets_light_angle_desc": "O ângulo que a lanterna ilumina.",
	"jimhud_gadgets_light_range_title": "Alcance da lanterna",
	"jimhud_gadgets_light_range_desc": "A distância que a lanterna pode cobrir.",
	"jimhud_gadgets_rainbow_enabled_title": "Ativar arco-íris",
	"jimhud_gadgets_rainbow_enabled_desc": "Ativa o modo arco-iris.",
	"jimhud_gadgets_rainbow_frequency_title": "Frequencia do arco-iris",
	"jimhud_gadgets_rainbow_frequency_desc": "Determina o quão rápido o arco-íris muda de cor.",
	"jimhud_gadgets_pulse_enabled_title": "Ativar Pulse",
	"jimhud_gadgets_pulse_enabled_desc": "Ativa o modo pulse.",
	"jimhud_gadgets_pulse_min_title": "Pulso Minimo",
	"jimhud_gadgets_pulse_min_desc": "Modificador de Opacidade Mínima a usar.",
	"jimhud_gadgets_pulse_max_title": "Pulse Maximo",
	"jimhud_gadgets_pulse_max_desc": "Modificador de Opacidade Máxima a usar.",
	"jimhud_gadgets_pulse_frequency_title": "Frequencia do pulso",
	"jimhud_gadgets_pulse_frequency_desc": "Determina o tempo que o multiplicador leva do pulso mínimo ao máximo.",

	"jimhud_assaultbanner_options_name": "Opções do Assault Banner",
	"jimhud_assaultbanner_options_help": "Opções para mudar o Assault Banner."
}