{
	"menu_jowi": "Уик",
	"hud_int_hold_grab_the_bag": "Удерживайте $INTERACT, чтобы взять $BAG",

	"jimhud_dialog_force_start_title": "Принудительно запустить игру?",
	"jimhud_dialog_force_start_desc": "Вы уверены, что хотите принудительно начать игру?\n\nИспользуйте эту функцию только если лобби заглючило или игрок отошел.\nУбедитесь, что у всех было достаточно времени для выбора снаряжения.\n\nСпасибо :)",
	"jimhud_dialog_rename_inv_tab": "Переименовать страницу инвентаря",
	"jimhud_dialog_rename_inv_tab_desc": "Введите новое имя для страницы инвентаря.",
	"jimhud_dialog_save": "Сохранить",
	"jimhud_dialog_requires_superblt_title": "[JimHUD] Не обнаружен SuperBLT!",
	"jimhuddialog_requires_superblt_desc_long": "Для работы WoldHUD требуется SupeBLT.\nSuperBLT - модернизированная версия ИДЕ с рядом существенных улучшений. \nОн полностью совместим с обычными BLT модами.\n\nВы можете найти дополнительную информацию и инструкцию по установке здесь: \n$URL",
	"jimhud_dialog_requires_superblt_desc_short": "JimHUD больше не совместим с обычным BLT.\nДля дальнейшего использования мода, пожалуйста, обновитесь до SuperBLT.\nВы можете найти SuperBLT здесь: '$URL'.",
	"jimhud_dialog_update_install_folder_title": "[JimHUD] Автообновления скомпроментированы!",
	"jimhud_dialog_update_install_folder_desc": "Для автоматических обновлений установочная папка JimHUD \nдолжна называться 'mods/jimhud-master/'. \n(В настоящее время это 'mods/$FOLDER/')",
	"jimhud_notification_disabled_override_title": "JimHUD: $NAME в настоящее время отключен.",
	"jimhud_notification_disabled_override_desc": "Если вы передумали, нажмите сюда, чтобы спросить потом.",
	"jimhud_notification_restart_override_title": "JimHUD: $NAME готов к установке.",
	"jimhud_notification_restart_override_desc": "Пожалуйста перезапустите игру для начала скачивания.",

	"jimhud_int_locked": "НАЖМИТЕ $BTN_CANCEL ДЛЯ ОТМЕНЫ ВЗАИМОДЕЙСТВИЯ",
	"jimhud_int_locked_pager": "НАЖМИТЕ $BTN_CANCEL ДЛЯ ПРЕРЫВАНИЯ\n(ПОДНИМЕТСЯ ТРЕВОГА)",

	"jimhud_buy_all_assets": "Купить все",
	"jimhud_buy_all_assets_desc": "Купить все активы которые вам доступны",

	"jimhud_preplanning_save": "Сохранить планирование",
	"jimhud_preplanning_load": "Загрузить планирование",
	"jimhud_preplanning_reset": "Сбросить планирование",
	"jimhud_preplanning_reset_all": "Сбросить все",
	"jimhud_preplanning_delete": "Удалить планирование",
	"jimhud_preplanning_save_tooltip_title": "Сохранить текущее планирование:",
	"jimhud_preplanning_save_tooltip_desc": "Сохраняет текущее планирование для того, чтобы было легче в следующий раз на этой миссии.",
	"jimhud_preplanning_load_tooltip_title": "Загрузить последнее планирование:",
	"jimhud_preplanning_load_tooltip_desc": "Открывает меню со всеми вашими планированиями.",
	"jimhud_preplanning_reset_tooltip_title": "Сбросить текущее планирование:",
	"jimhud_preplanning_reset_tooltip_desc": "Сбрасывает все выбранные вами активы в текущем планировании, а также ваши голоса.",
	"jimhud_preplanning_reset_all_tooltip_title": "Сбросить завершенное планирование:",
	"jimhud_preplanning_reset_all_tooltip_desc": "Сбрасывает активы у каждого в текущем планировании, а также ваши голоса.",
	"jimhud_preplanning_delete_tooltip_title": "Удалить сохраненное планирование",
	"jimhud_preplanning_delete_tooltip_desc": "Очищает сохраненные планирования и удаляет некоторые из них.",
	"jimhud_preplanning_manager_title": "Менеджер планирования",
	"jimhud_preplanning_error_no_saved_plans": "Сохраненных планирований не найдено.",
	"jimhud_preplanning_error_max_plans_reached": "Достигнуто максимальное кол-во планирований.",
	"jimhud_preplanning_votes_title": "Голоса:",
	"jimhud_preplanning_assets_title": "Активы:",
	"jimhud_preplanning_dialog_save": "Сохранить планирование?",
	"jimhud_preplanning_dialog_save_desc": "$PLAN\n\n\nПожалуйста, введите название этого планирования.\n(Использование уже существующего названия перезапишет это планирование.)",
	"jimhud_preplanning_dialog_delete": "Удалить планирование?",
	"jimhud_preplanning_dialog_delete_desc": "Вы уверены что хотите удалить планирование '$NAME'?",
	"jimhud_preplanning_msg_saved_success": "Текущее планирование успешно сохранено.",
	"jimhud_preplanning_msg_saved_failed": "Произошла ошибка при сохранении планирования.",
	"jimhud_preplanning_msg_no_save_slot": "Достигнуто максимальное кол-во сохраненный планирований.",
	"jimhud_preplanning_msg_no_current_plan": "Вы ничего не спланировали для того чтобы сохранить.",
	"jimhud_preplanning_msg_loaded_success": "Планирование успешно загружено.",
	"jimhud_preplanning_msg_loaded_failed": "Произошла ошибка при загрузке планирования.",
	"jimhud_preplanning_msg_loaded_partitially": "Планирование загружено частично: $ERRORMSG",
	"jimhud_preplanning_msg_loaded_missing_skill": "Отсутствует навык",
	"jimhud_preplanning_msg_loaded_missing_favours": "Недостаточно услуг",
	"jimhud_preplanning_msg_loaded_missing_money": "Недостаточно денег",
	"jimhud_preplanning_msg_reseted_success": "Текущее планирование сброшено.",
	"jimhud_preplanning_msg_reseted_failed": "Произошла ошибка во время сброса текущего планирования.",
	"jimhud_preplanning_msg_deleted_success": "Планирование успешно удалено.",
	"jimhud_preplanning_msg_deleted_failed": "Произошла ошибка при удалении сохраненного планирования.",
	"jimhud_preplanning_msg_folder_creation_failed": "Неудачное создание папки: $FOLDER \nУбедитесь, что игра имеет необходимые разрешения или создайте её вручную.",
	"jimhud_preplanning_msg_file_creation_failed": "Неудачное создание файла: $FILE \nУбедитесь, что игра имеет необходимые разрешения или создайте его вручную.",

	"jimhud_inv_tab_rename_hint": "Дважды щелкните вкладку инвентаря, чтобы переименовать ее.",

	"jimhud_loadout_hours_played": "$HOURS ч.",

	"jimhud_profile_switch_title": "Смена профилей",
	"jimhud_profile_switch_title_profiles": "Профиль:",

	"victory_most_damage": "Наибольший урон:",
	"victory_session_damage": "Общий урон:",

	"jimhud_advassault_phase_title": "Стадия Штурма: ",
	"jimhud_advassault_spawns_title": "Осталось Спаунов: ",
	"jimhud_advassault_time_title": "Осталось Времени: ",
	"jimhud_advassault_phase_anticipation": "Подготовка",
	"jimhud_advassault_phase_build": "Нарастание",
	"jimhud_advassault_phase_sustain": "Подкрепление",
	"jimhud_advassault_phase_fade": "Затихание",
	"jimhud_advassault_time_overdue": "ЗАДЕРЖКА",
	"jimhud_locked_assault": "Бесконечный штурм!!!  Убирайтесь как можно скорее!!!",

	"jimhud_customhud_interaction_done": "ГОТОВО",
	"jimhud_customhud_interaction_aborted": "ОТКЛОНЕНО",

	"jimhud_hudlist_device_timer": "Таймер",
	"jimhud_hudlist_device_drill": "Дрель",
	"jimhud_hudlist_device_hack": "Взлом",
	"jimhud_hudlist_device_saw": "Распил",
	"jimhud_hudlist_device_security": "Hacks",
	"jimhud_hudlist_device_security_bar": "Hack $CURRENT/$TOTAL",
	"jimhud_hudlist_loot_armor": "Броня",
	"jimhud_hudlist_loot_bomb": "Бомба",
	"jimhud_hudlist_loot_weapon": "Оружие",
	"jimhud_hudlist_loot_diamond": "Алмаз",
	"jimhud_hudlist_loot_evidence": "Данные",
	"jimhud_hudlist_loot_toast": "Тост",
	"jimhud_hudlist_loot_crate": "Ящик",
	"jimhud_hudlist_loot_toothbrush": "Щетка",
	"jimhud_hudlist_loot_bag": "Сумка",
	"jimhud_hudlist_loot_shoes": "Обувь",
	"jimhud_hudlist_loot_toy": "Игрушка",
	"jimhud_hudlist_loot_vr": "Шлем",
	"jimhud_hudlist_loot_egg": "Яйцо",
	"jimhud_hudlist_loot_treasure": "Сокровище",
	"jimhud_hudlist_loot_showcase": "Витрина",

	"jimhud_hudlist_buff_basic": "Базовый",
	"jimhud_hudlist_buff_aced": "Про",
	"jimhud_hudlist_buff_boost": "Вдохн.",
	"jimhud_hudlist_buff_revive": "Восст.",
	"jimhud_hudlist_buff_crew_inspire_debuff": "Возрождение (ИИ)",
	"jimhud_hudlist_buff_dmg_inc": "+Урон",
	"jimhud_hudlist_buff_dmg_dec": "-Урон",
	"jimhud_hudlist_buff_mdmg_inc": "+Р.Урон",
	"jimhud_hudlist_buff_phealth_reg": "+HP",
	"jimhud_hudlist_buff_tot_dodge": "%Уклон.",

	"jimhud_tabstats_total_damage": "Всего Урона:",
	"jimhud_tabstats_tanks_killed": "Убито бульдозеров:",
	"jimhud_tabstats_cloakers_killed": "Убито клокеров:",
	"jimhud_tabstats_shields_killed": "Убито щитов:",
	"jimhud_tabstats_snipers_killed": "Убито снайперов:",
	"jimhud_tabstats_tasers_killed": "Убито тазеров:",
	"jimhud_tabstats_gensec_killed": "Убито GENSEC:",
	"jimhud_tabstats_medic_killed": "Убито медиков:",
	"jimhud_tabstats_melee_kills": "Убито в ближнем бою:",
	"jimhud_tabstats_explosion_kills": "Убито взрывом:",
	"jimhud_tabstats_nonspecial_kills": "Убито обычных:",
	"jimhud_tabstats_total_kills": "Total Kills:",
	"jimhud_tabstats_total_revives": "Всего помощи (Игр/ИИ):",
	"jimhud_tabstats_alltime_stat": "За все время:",

	"jimhud_enemy_civilian": "Гражданский",
	"jimhud_enemy_mariachi": "Член банды Мариачи",
	"jimhud_enemy_gangster": "Бандит",
	"jimhud_enemy_biker": "Байкер",
	"jimhud_enemy_bolivian_security_mex": "Охранник Койопа",
	"jimhud_enemy_bolivian_security": "Охрана Сосы",
	"jimhud_enemy_bolivian_thug": "Головорез Сосы",
	"jimhud_enemy_mobster": "Русский бандит",
	"jimhud_enemy_security": "Охранник",
	"jimhud_enemy_gensec": "GENSEC",
	"jimhud_enemy_cop": "Офицер полиции",
	"jimhud_enemy_fbi": "Агент ФБР",
	"jimhud_enemy_swat": "Спецназовец",
	"jimhud_enemy_heavy_swat": "Тяжелый спецназовец",
	"jimhud_enemy_heavy_swat_sniper": "ZEAL Снайпер",
	"jimhud_enemy_city_swat": "Элитный юнит",
	"jimhud_enemy_shield": "Щит",
	"jimhud_enemy_spook": "Клокер",
	"jimhud_enemy_shadow_spook": "Shadow Cloaker",
	"jimhud_enemy_taser": "Тазер",
	"jimhud_enemy_sniper": "Снайпер",
	"jimhud_enemy_medic": "Медик",
	"jimhud_enemy_tank": "Бульдозер",
	"jimhud_enemy_tank_hw": "Безголовый Бульдозер",
	"jimhud_enemy_tank_medic": "Бульдозер медик",
	"jimhud_enemy_tank_mini": "Бульдозер с миниганом",
	"jimhud_enemy_phalanx_minion": "Щит Винтерса",
	"jimhud_enemy_phalanx_vip": "Капитан Винтерс",
	"jimhud_enemy_swat_van": "ТУРЕЛЬ СПЕЦНАЗА",
	"jimhud_enemy_ceiling_turret": "ТУРЕЛЬ",
	"jimhud_enemy_aa_turret": "Противовоздушная турель",
	"jimhud_enemy_crate_turret": "ТУРЕЛЬ",
	"jimhud_enemy_sentry_gun": "ТУРЕЛЬ",
	"jimhud_enemy_mobster_boss": "Комиссар",
	"jimhud_enemy_chavez_boss": "Чавез",
	"jimhud_enemy_druglord_boss": "Босс Соса",
	"jimhud_enemy_druglord_boss_stealth": "Босс Соса",
	"jimhud_enemy_biker_boss": "Босс байкеров",
	"jimhud_enemy_bank_manager": "Менеджер банка",
	"jimhud_enemy_dah_ralph": "Ральф Гарнет",
	"jimhud_enemy_inside_man": "Крот",
	"jimhud_enemy_escort_undercover": "Налогосборщик",
	"jimhud_enemy_escort_heatstreet": "Мэтт",
	"jimhud_enemy_escort_chinese_prisoner": "Казо",
	"jimhud_enemy_escort_cfo": "Фин. директор Гарнетта",
	"jimhud_enemy_escort_reservoirdogs": "Mr. Pink",
	"jimhud_enemy_escort_bain_locke": "Locke / Bain",
	"jimhud_enemy_drunk_pilot": "Пьяный пилот",
	"jimhud_enemy_escort": "Сопровождающий",
	"jimhud_enemy_boris": "Борис",
	"jimhud_enemy_spa_vip": "Харон",
	"jimhud_enemy_spa_vip_hurt": "Харон (раненый)",
	"jimhud_enemy_old_hoxton_mission": "Хокcтон",
	"jimhud_enemy_locke_mission": "Лок",
	"jimhud_enemy_hector_boss": "Бронированный Гектор",
	"jimhud_enemy_hector_boss_no_armor": "Гектор",
	"jimhud_enemy_reservoirdogs": "Mr. Blonde",
	"jimhud_enemy_crew": "Член Команды",
	"jimhud_enemy_butler": "Альдстоун",
	"jimhud_enemy_vlad": "Влад",
	"jimhud_enemy_kento": "Kento",

	"jimhud_enemy_boom": "Гренадер",
	"jimhud_enemy_omnia_lpf": "OMNIA L.P.F.",
	"jimhud_enemy_summers": "Капитан Саммерс",
	"jimhud_enemy_boom_summers": "Майор Молли",
	"jimhud_enemy_taser_summers": "Инженер-электрик",
	"jimhud_enemy_medic_summers": "Сержант Док",
	"jimhud_enemy_spring": "Капитан Спринг",
	"jimhud_enemy_fbi_vet": "Ветеран Коп",

	"jimhud_enemy_deathvox_light": "ZEAL",
	"jimhud_enemy_deathvox_heavy": "Тяжёлый ZEAL",

	"jimhud_multiselect_all": "Все",
	"jimhud_multiselect_none": "Нет",
	"jimhud_multiselect_disabled": "Отключен",
	"jimhud_multiselect_random": "Случайно",
	"jimhud_multiselect_left": "Слева",
	"jimhud_multiselect_center": "По центру",
	"jimhud_multiselect_right": "Справа",

	"jimhud_colors_white": "Белый",
	"jimhud_colors_light_yellow": "Светло-желтый",
	"jimhud_colors_light_orange": "Светло-оранжевый",
	"jimhud_colors_light_red": "Светло-красный",
	"jimhud_colors_light_purple": "Светло-фиолетовый",
	"jimhud_colors_light_green": "Светло-зеленый",
	"jimhud_colors_light_blue": "Светло-голубой",
	"jimhud_colors_light_gray": "Светло-серый",
	"jimhud_colors_yellow": "Желтый",
	"jimhud_colors_orange": "Оранжевый",
	"jimhud_colors_red": "Красный",
	"jimhud_colors_purple": "Фиолетовый",
	"jimhud_colors_green": "Зеленый",
	"jimhud_colors_blue": "Синий",
	"jimhud_colors_gray": "Серый",
	"jimhud_colors_black": "Черный",
	"jimhud_colors_rainbow": "Разноцветный",

	"jimhud_options_name": "JimHUD",
	"jimhud_options_help": "Настройте JimHUD в соответветствии с вашими предпочтениями.",

	"jimhud_language_title": "Язык",
	"jimhud_language_desc": "Выберите язык для JimHUD.\n(Необходимо сменить карту для принятия изменений...)",

	"jimhud_languages_english": "English",
	"jimhud_languages_german": "German",
	"jimhud_languages_dutch": "Dutch",
	"jimhud_languages_french": "French",
	"jimhud_languages_italian": "Italian",
	"jimhud_languages_spanish": "Spanish",
	"jimhud_languages_portuguese": "Portugese",
	"jimhud_languages_russian": "Russian",
	"jimhud_languages_chinese": "Chinese",
	"jimhud_languages_korean": "Korean",

	"jimhud_skip_blackscreen_title": "Пропустить черный экран",
	"jimhud_skip_blackscreen_desc": "Автоматически пропускает черный экран в начале миссии.\n(Только хост)",
	"jimhud_instant_restart_title": "Немедленный перезапуск",
	"jimhud_instant_restart_desc": "Автоматически пропускает таймер в 5 секунд перед перезапуском в лобби.\n(Только хост)",
	"jimhud_stat_screen_speedup_title": "Ускоренный экран статистики",
	"jimhud_stat_screen_speedup_desc": "Автоматически ускоряет подсчет опыта без необходимости зажатия пробела.",
	"jimhud_stat_screen_delay_title": "Задержка экрана статистики",
	"jimhud_stat_screen_delay_desc": "Задержка X секунд, после того как ваш EXP будет посчитан.\n(Только хост, 0 = выключено) ",
	"jimhud_loot_screen_pick_card_title": "Автовыбор карты",
	"jimhud_loot_screen_pick_card_desc": "Автоматический выбор карты, когда отображается экран добычи.",
	"jimhud_loot_screen_pick_specific_card_title": "Автоматический выбор конкретной карты",
	"jimhud_loot_screen_pick_specific_card_desc": "Выберите, какую карту выбирать автоматически.",
	"jimhud_loot_screen_delay_title": "Задержка экрана добычи",
	"jimhud_loot_screen_delay_desc": "Задержка X секунд после того как вы получите добычу.\n(Только хост, 0 = выключено)",
	"jimhud_inventory_tab_names_title": "Исп. названия вкладок в инвентаре",
	"jimhud_inventory_tab_names_desc": "Настройте ваши имена вкладок в инвентаре.\n(Отредактируйте в '/mods/saves/JimHUD_InventoryNames.txt')",
	"jimhud_inventory_names_title": "Показать названия ячеек инвентаря",
	"jimhud_inventory_names_desc": "Показать названия вашего оружия, брони, снаряжения и т.д. внутри ячейки в инвентаре.",
	"jimhud_skill_names_title": "Показать названия навыков",
	"jimhud_skill_names_desc": "Всегда показывает названия навыков в дереве навыков.",
	"jimhud_show_contractor_job_heat_title": "Show Contractor Heat",
	"jimhud_show_contractor_job_heat_desc": "Shows job heat in the contract broker list.",
	"jimhud_show_mini_icons_title": "Всегда показывать мини-иконки",
	"jimhud_show_mini_icons_desc": "Всегда показывать иконки модификаций всех оружий, а не только выбранного.",
	"jimhud_no_slowmotion_title": "Без замедления",
	"jimhud_no_slowmotion_desc": "Отключает замедление движения вовремя надевания маски или при падении.",
	"jimhud_reset_options_title": "Сбросить Настройки",
	"jimhud_reset_options_desc": "Сбросить все Настройки по умолчанию.",
	"jimhud_reset_options_confirm": "Вы уверены, что хотите сбросить все настройки по умолчанию?",

	"jimhud_adv_assault_title": "Расширенный баннер штурма",
	"jimhud_adv_assault_desc": "Отображает фазу штурма, время и оставшиеся спауны во время штурма.\n(Только хост)",
	"jimhud_assault_position_title": "Расположение Штурма",
	"jimhud_assault_position_desc": "Горизонтальное расположение баннера Штурма.",
	"jimhud_pacified_civs_title": "Показать усмиренных гражданских",
	"jimhud_pacified_civs_desc": "Заменяет иконку над головой усмиренного гражданского, когда он ложится.",
	"jimhud_use_realammo_title": "Исп. настоящие боеприпасы",
	"jimhud_use_realammo_desc": "Показывает остаток боеприпасов, не учитывая патроны в текущем магазине.",
	"jimhud_enable_burstmode_desc": "Включает режим стрельбы очередями для вашего оружия.",

	"jimhud_playerpanel_options_name": "Панель Игрока",
	"jimhud_playerpanel_options_help": "Настройки для вашей собственной панели HUD.",

	"jimhud_teampanels_options_name": "Панели напарников",
	"jimhud_teampanels_options_help": "Настройки для панелей HUD напарников.",

	"jimhud_panels_position_title": "Расположение",
	"jimhud_panels_position_desc": "Горизонтальное расположение HUD панели.",
	"jimhud_panels_scale_title": "Масштаб",
	"jimhud_panels_scale_desc": "Масштабирование HUD панели.",
	"jimhud_panels_oppacity_title": "Непрозрачность",
	"jimhud_panels_oppacity_desc": "Задайте непрозрачности HUD панели.",
	"jimhud_panels_show_name_title": "Отображение имени",
	"jimhud_panels_show_name_desc": "Отображает имена игроков.",
	"jimhud_panels_show_rank_title": "Отображение ранга",
	"jimhud_panels_rank_name_desc": "Показывает ранг игроков.",
	"jimhud_panels_truncate_tags_title": "Обрезанные теги",
	"jimhud_panels_truncate_tags_desc": "Попробуйте отсечь теги клана от имен игров",
	"jimhud_panels_show_char_title": "Отображение персонажа",
	"jimhud_panels_show_char_desc": "Показывает персонажа, выбранного игроком.",
	"jimhud_panels_show_ping_title": "Отображение пинга",
	"jimhud_panels_show_ping_desc": "Показывает пинг игроков для вас.",
	"jimhud_panels_show_status_title": "Отображение статуса",
	"jimhud_panels_show_status_desc": "Показывает статус игроков (здоровье, броня и т.д.)",
	"jimhud_panels_condition_icon_color_title": "Цвет значка состояния",
	"jimhud_panels_condition_icon_color_desc": "Задает цвет значка состояния (упавший, под стражей, лебединая песня и т.п.)",
	"jimhud_panels_show_equip_title": "Отображение снаряжения",
	"jimhud_panels_show_equip_desc": "Показывает снаряжение игроков.",
	"jimhud_panels_show_special_equip_title": "Отображение особого снаряжения",
	"jimhud_panels_show_special_equip_desc": "Показывает особое снаряжение у игроков.",
	"jimhud_panels_special_equip_rows_title": "Кол-во особого снаряжения",
	"jimhud_panels_special_equip_rows_desc": "Кол-во особого снаряжения, которое можно разместить в одну колонку.",
	"jimhud_panels_show_callsign_title": "Отображение позывных",
	"jimhud_panels_show_callsign_desc": "Показывает позывные для этого игрока.",
	"jimhud_panels_show_stamina_title": "Показать выносливость",
	"jimhud_panels_show_stamina_desc": "Показывает круг выносливости внутри вашего индикатора здоровья.",
	"jimhud_panels_show_downcounter_title": "Показать обратный счетчик",
	"jimhud_panels_show_downcounter_desc": "Показывает обратный счетчик для каждого не ИИ. \nСчетчик показывает падения вас и ваших напарников.",
	"jimhud_panels_show_carry_title": "Отображение сумки",
	"jimhud_panels_show_carry_desc": "Показывает информацию о переносимой сумке.",
	"jimhud_panels_build_show_title": "Отображение билда",
	"jimhud_panels_build_show_desc": "Показывает билды присоединившихся игроков.",
	"jimhud_panels_build_time_title": "Время отображения билда",
	"jimhud_panels_build_time_desc": "Показывает билды игроков X секунд.\n(0 = Постоянно)",
	"jimhud_panels_weapon_icon_title": "Иконки оружия",
	"jimhud_panels_weapon_icon_desc": "Какие иконки оружия вы хотите видеть?",
	"jimhud_panels_weapon_name_title": "Названия Оружия",
	"jimhud_panels_weapon_name_desc": "Отображать названия оружий?",
	"jimhud_panels_weapon_ammo_title": "Боеприпасы оружия",
	"jimhud_panels_weapon_ammo_desc": "Режим отображения боеприпасов оружия.",
	"jimhud_panels_weapon_firemode_title": "Режимы стрельбы",
	"jimhud_panels_weapon_firemode_desc": "Показывает или скрывает режимы стрельбы.",
	"jimhud_panels_hide": "Скрыть",
	"jimhud_panels_selected": "Только выбранные",
	"jimhud_panels_unselected": "Только невыбранные",
	"jimhud_panels_both": "Оба",
	"jimhud_panels_ammo_total": "Только все боеприпасы",
	"jimhud_panels_show_interaction_title": "Показать взаимодействие",
	"jimhud_panels_show_interaction_desc": "Показать взаимодействия ваших напарников.",
	"jimhud_panels_show_interaction_number_title": "Таймер взаимодействия",
	"jimhud_panels_show_interaction_number_desc": "Показывает цифровой индикатор",
	"jimhud_panels_show_interaction_text_title": "Текст взаимодействия",
	"jimhud_panels_show_interaction_text_desc": "Показывает текст взаимодействия",
	"jimhud_panels_interaction_time_title": "Длительность мин. взаимодействия",
	"jimhud_panels_interaction_time_desc": "Показывать взаимодействия напарников, только если длится больше X секунд.",
	"jimhud_panels_use_ai_color_title": "Использовать польз. цвет бота",
	"jimhud_panels_use_ai_color_desc": "Использовать пользовательский цвет для имен ботов. (Также влияет на высплывающие подсказки с уроном)",
	"jimhud_panels_ai_color_title": "Польз. цвет бота",
	"jimhud_panels_ai_color_desc": "Задайте настраиваемый цвет имен ботов. (Также влияет на высплывающие подсказки с уроном)",

	"jimhud_chat_options_name": "Настройки чата",
	"jimhud_chat_options_help": "Настройки кастомизации чата.",

	"jimhud_chat_waittime_title": "Время исчезания чата",
	"jimhud_chat_waittime_desc": "Время через которое чат исчезнет\n(0 = Никогда)",
	"jimhud_chat_fontsize_title": "Размер шрифта чата",
	"jimhud_chat_fontsize_desc": "Размер шрифта для внутриигрового чата.",
	"jimhud_chat_outputlines_title": "Макс кол-во строк чата",
	"jimhud_chat_outputlines_desc": "Максимальное количество строк для отображения перед прокруткой.",
	"jimhud_spam_filter_title": "Фильтр спама в чате",
	"jimhud_spam_filter_desc": "Убирает спам от PocoHUD и [NGBTO] из чата.",
	"jimhud_chat_width_title": "Ширина чата",
	"jimhud_chat_width_desc": "Ширина окна с чатом",
	"jimhud_chat_inputlines_title": "Макс. кол-во строк ввода текста",
	"jimhud_chat_inputlines_desc": "Кол-во строк для ввода текста",
	"jimhud_chat_colored_bg_title": "Цветной фон",
	"jimhud_chat_colored_bg_desc": "Задайте цвет фона под текстом в чате",
	"jimhud_chat_scrollbar_align_title": "Выравнивание прокрутки",
	"jimhud_chat_scrollbar_align_desc": "Выравнивание полосы прокрутки",

	"jimhud_suspicion_options_name": "Настройки Подозрения",
	"jimhud_suspicion_options_help": "Настройки размера панели подозрения, а также его видимых компонентов.",

	"jimhud_suspicion_scale_title": "Масштаб подозрения",
	"jimhud_suspicion_scale_desc": "Масштабирование для элементов панели подозрения.",
	"jimhud_susp_eye_title": "Показать метку подозрения",
	"jimhud_susp_eye_desc": "Показать стандартные элементы подозрения.",
	"jimhud_susp_numeric_title": "Показать подозрение в цифрах",
	"jimhud_susp_numeric_desc": "Показывает значение подозрения в процентах.",
	"jimhud_susp_numeric_outline_title": "Черный контур",
	"jimhud_susp_numeric_outline_desc": "Показать черный контур вокруг цифренного значения подозрения.",

	"jimhud_killcounter_player_show_killcount_desc": "Отображать счетчик убийств в вашем HUD.",
	"jimhud_killcounter_player_color_desc": "Выберите цвет для счетчика убийств.",
	"jimhud_killcounter_player_show_special_desc": "Отображает убийства спец. врагов по-отдельности.",
	"jimhud_killcounter_player_show_head_desc": "Отображает выстрелы в голову по-отдельности.",
	"jimhud_killcounter_player_show_accuracy_desc": "Отображает вашу текущую точность в вашем HUD.",
	"jimhud_killcounter_team_show_killcount_desc": "Отображает счетчик убийств в HUD ваших напарников.",
	"jimhud_killcounter_team_color_desc": "Выберите цвет для счетчика убийств для ваших напарников.",
	"jimhud_killcounter_team_show_special_desc": "Отображает убийства спец. врагов по-отдельности.",
	"jimhud_killcounter_team_show_head_desc": "Отображает выстрелы в голову по-отдельности.",
	"jimhud_killcounter_team_show_ai_desc": "Счетчик убийств будет и у ботов?",
	"jimhud_corpse_limit_title": "Ограничение трупов",
	"jimhud_corpse_limit_desc": "Сколько трупов может лежать одновременно?\n(Необходимо сменить карту для принятия изменений...)",

	"jimhud_drivinghud_options_name": "Настройки DrivingHUD",
	"jimhud_drivinghud_options_help": "Настройки для DrivingHUD.",

	"jimhud_show_drivinghud_title": "Показать Driving HUD",
	"jimhud_show_drivinghud_desc": "Показать небольшой HUD в правом нижнем углу во время вождения.\n(Необходимо сменить карту для принятия изменений...)",
	"jimhud_drivinghud_scale_title": "Масштаб",
	"jimhud_drivinghud_scale_desc": "Коэффициент масштабирования для DrivingHUD.",
	"jimhud_drivinghud_show_vehicle_title": "Показать изображение транспорта",
	"jimhud_drivinghud_show_vehicle_desc": "Отображать маленькое изображение транспорта и маски игроков двигающиъся с вами.",
	"jimhud_drivinghud_show_health_title": "Показать здоровье",
	"jimhud_drivinghud_show_health_desc": "Отображает здоровье транспорта.",
	"jimhud_drivinghud_show_loot_title": "Показать ценности",
	"jimhud_drivinghud_show_loot_desc": "Отображает загруженность транспорта и максимальное кол-во ценностей.",
	"jimhud_drivinghud_show_passengers_title": "Показать пассажиров",
	"jimhud_drivinghud_show_passengers_desc": "Показывает кол-во пассажиров в транспорте и общее число мест.",
	"jimhud_drivinghud_show_gear_title": "Показать передачу",
	"jimhud_drivinghud_show_gear_desc": "Отображает передачу во время движения.",
	"jimhud_drivinghud_show_speed_title": "Показать скорость",
	"jimhud_drivinghud_show_speed_desc": "Отображает текущую скорость транспорта.",
	"jimhud_drivinghud_speed_in_mph_title": "Скорость в мили/час",
	"jimhud_drivinghud_speed_in_mph_desc": "Отображать скорость в мили/час.\n(В противном случае используются км/ч .)",
	"jimhud_drivinghud_show_rpm_title": "Показать крутящий момент",
	"jimhud_drivinghud_show_rpm_desc": "Отображает крутящий момент у траспорта.",

	"jimhud_infopanels_options_name": "HUD Инфо Настройки",
	"jimhud_infopanels_options_help": "Настройки для инфоблоков из HUDList.",

	"jimhud_use_hudlist_title": "Использовать HUDList",
	"jimhud_use_hudlist_desc": "HUDList может отображать много различных функций. Таймеры сверления, кол-во врагов или лута, активы на карте, и т.д. (Необходимо сменить карту для принятия изменений...)",
	"jimhud_hudlist_scale_right_title": "Масштаб блоков справа",
	"jimhud_hudlist_scale_right_desc": "Коэффициент масштабирования блоков справа.",
	"jimhud_hudlist_scale_left_title": "Масштаб блоков слева",
	"jimhud_hudlist_scale_left_desc": "Коэффициент масштабирования блоков слева.",
	"jimhud_hudlist_scale_buff_title": "Масштаб бафф блоков",
	"jimhud_hudlist_scale_buff_desc": "Коэффициент масштабирования баффов.",
	"jimhud_hudlist_box_color_title": "Цвет шрифта блоков",
	"jimhud_hudlist_box_color_desc": "Цвет передней панели левого и правого блоков.\n(Необходимо сменить карту для принятия изменений...)",
	"jimhud_hudlist_box_bg_color_title": "Цвет фона блоков",
	"jimhud_hudlist_box_bg_color_desc": "Цвет фона левого и правого блоков.\n(Необходимо сменить карту для принятия изменений...)",
	"jimhud_hudlist_civcolor_title": "Цвет гражданских",
	"jimhud_hudlist_civcolor_desc": "Цвет для гражданских и заложников в EnemyCounter.",
	"jimhud_hudlist_thugcolor_title": "Цвет бандитов",
	"jimhud_hudlist_thugcolor_desc": "Цвет для головорезов и бандитов в EnemyCounter.",
	"jimhud_hudlist_copcolor_title": "Цвет врагов",
	"jimhud_hudlist_copcolor_desc": "Цвет для копов, особых врагов и турелей в EnemyCounter.",
	"jimhud_hudlist_specialcolor_title": "Цвет особых врагов",
	"jimhud_hudlist_specialcolor_desc": "Цвет для особых врагов и турелей в EnemyCounter.",
	"jimhud_hudlist_progress_alpha_left_title": "Прозрачность левого списка",
	"jimhud_hudlist_progress_alpha_left_desc": "Уровень прозрачности индикаторов левого списка.",
	"jimhud_hudlist_progress_alpha_right_title": "Прозрачность правого списка",
	"jimhud_hudlist_progress_alpha_right_desc": "Уровень прозрачности индикаторов правого списка.",
	"jimhud_hudlist_progress_alpha_buff_title": "Прозрачность списка баффов",
	"jimhud_hudlist_progress_alpha_buff_desc": "Уровень прозрачности индикаторов списка баффов.",
	"jimhud_hudlist_timers_in_seconds_title": "Таймеры в секундах",
	"jimhud_hudlist_timers_in_seconds_desc": "Всегда показывать таймеры в секундах.",

	"jimhud_infopanels_left_options_name": "Настройки списка слева",
	"jimhud_infopanels_left_options_help": "Настройки для списка информации слева.",

	"jimhud_hudlist_show_timers_title": "Показать таймеры",
	"jimhud_hudlist_show_timers_desc": "Отображать таймеры для дрелей, взломы и т.д.",
	"jimhud_hudlist_show_equipment_desc": "Определяет следует ли нам отображать снаряжение в правой части экрана.",
	"jimhud_hudlist_show_ammo_bags_title": "Показать боеприпасы",
	"jimhud_hudlist_show_doc_bags_title": "Показать медицинские сумки",
	"jimhud_hudlist_show_first_aid_kits_title": "Показать аптечки первой помощи",
	"jimhud_hudlist_show_body_bags_title": "Показать мешки для трупов",
	"jimhud_hudlist_show_grenade_crates_title": "Показать гранаты",
	"jimhud_hudlist_sentries_title": "Показать турели",
	"jimhud_hudlist_sentries_desc": "Показать здоровье и боеприпасы турелей.",
	"jimhud_hudlist_hide_empty_sentries_title": "Скрыть пустые турели",
	"jimhud_hudlist_hide_empty_sentries_desc": "Скрыть блоки с пустыми турелями.",
	"jimhud_hudlist_show_ecms_title": "Показать джаммеры",
	"jimhud_hudlist_show_ecms_desc": "Показать таймер для джаммеров ",
	"jimhud_hudlist_show_ecm_retrigger_title": "Показать перезапуск джаммера",
	"jimhud_hudlist_show_ecm_retrigger_desc": "Показать, когда джаммер готов перезапуститься.",
	"jimhud_hudlist_show_minions_title": "Показать джокеров",
	"jimhud_hudlist_show_minions_desc": "Показать здоровьее всех пойманных копов.",
	"jimhud_hudlist_show_own_minions_only_title": "Только свои джокеры",
	"jimhud_hudlist_show_own_minions_only_desc": "Показывать только своих джокеров.",
	"jimhud_hudlist_show_pagers_title": "Показать пейджеры",
	"jimhud_hudlist_show_pagers_desc": "Показать таймер оставшегося времени пейджера перед триггерами сигнализации.",
	"jimhud_hudlist_show_tape_loop_title": "Показать зацикленные камеры",
	"jimhud_hudlist_show_tape_loop_desc": "Показать таймер зацикленной камеры.",
	"jimhud_hudlist_remove_answered_pagers_title": "Убрать контур пейджера",
	"jimhud_hudlist_remove_answered_pagers_desc": "Убрать контур пейджера, если уже происходит ответ на него.",

	"jimhud_infopanels_right_options_name": "Настройки списка справа",
	"jimhud_infopanels_right_options_help": "Настройки для списка информации справа.",

	"jimhud_hudlist_show_enemies_title": "Показать врагов",
	"jimhud_hudlist_show_enemies_desc": "Показать кол-во врагов на карте.",
	"jimhud_hudlist_aggregate_enemies_title": "Объединение врагов",
	"jimhud_hudlist_aggregate_enemies_desc": "Показать один HUD блок для всех врагов.",
	"jimhud_hudlist_show_turrets_title": "Показать фургоны с турелями",
	"jimhud_hudlist_show_turrets_desc": "Показать кол-во фургонов с турелями на карте.",
	"jimhud_hudlist_show_civilians_title": "Показать гражданских",
	"jimhud_hudlist_show_civilians_desc": "Показать общее кол-во гражданских на карте.",
	"jimhud_hudlist_show_hostages_title": "Показать заложников",
	"jimhud_hudlist_show_hostages_desc": "Показать кол-во гражданских в заложниках.",
	"jimhud_hudlist_aggregate_hostages_title": "Общее числов заложников",
	"jimhud_hudlist_aggregate_hostages_desc": "Показывает все типы заложников в одной информационной ячейке.",
	"jimhud_hudlist_show_minion_count_title": "Показать кол-во копов",
	"jimhud_hudlist_show_minion_count_desc": "Показать кол-во копов в заложниках.",
	"jimhud_hudlist_show_pager_count_title": "Показать список стелса",
	"jimhud_hudlist_show_pager_count_desc": "Отображает кол-во оставшихся пейджеров, активных камер и перетаскиваемых мешков с трупами.",
	"jimhud_hudlist_show_cam_count_title": "Показать кол-во камер",
	"jimhud_hudlist_show_cam_count_desc": "Показывает кол-во активных камер во время стелса",
	"jimhud_hudlist_show_bodybags_count_title": "Показать кол-во мешков для трупов",
	"jimhud_hudlist_show_bodybags_count_desc": "Показывает кол-во мешков в расширенном инвентаре прямо на экране",
	"jimhud_hudlist_show_corpse_count_title": "Показать кол-во трупов",
	"jimhud_hudlist_show_corpse_count_desc": "Показывает кол-во трупов и упакованных тел на карте во время стелса.",
	"jimhud_hudlist_show_loot_title": "Показать добычу",
	"jimhud_hudlist_show_loot_desc": "Кол-во добычик в мешках на текущей карте.",
	"jimhud_hudlist_aggregate_loot_title": "Объединение добычи",
	"jimhud_hudlist_aggregate_loot_desc": "Показать все типы добычи в едином значении счетчика.",
	"jimhud_hudlist_separate_bagged_loot_title": "Раздельная добыча",
	"jimhud_hudlist_separate_bagged_loot_desc": "Раздельное отображение упакованной и неупакованной добычи.",
	"jimhud_hudlist_show_potential_loot_title": "Показать потенциальную добычу",
	"jimhud_hudlist_show_potential_loot_desc": "Показывает кол-во ящиков на карте в счетчике добычи. \n(Помните, ящики могут быть пусты...)",
	"jimhud_hudlist_show_special_pickups_title": "Показать особые вещи",
	"jimhud_hudlist_show_special_pickups_desc": "Показать кол-во химикатов, ключ-карт и других предметов на карте.",
	"jimhud_hudlist_show_mission_pickups_title": "Показать подбираемые предметы на миссии",
	"jimhud_hudlist_show_mission_pickups_desc": "Показать количество ингредиентов, ключкарт, досок и других предметов на карте.",
	"jimhud_hudlist_show_collectables_pickups_title": "Показать коллекционируемые предметы",
	"jimhud_hudlist_show_collectables_pickups_desc": "Показать количество посылок Гейджа, кейсов, ключей и прочее на карте.",
	"jimhud_hudlist_show_valuables_pickups_title": "Показать добычу",
	"jimhud_hudlist_show_valuables_pickups_desc": "Показать количество ценностей, например пачки денег или ожерелья на карте.",

	"jimhud_infopanels_buff_options_name": "Настройки списка баффов",
	"jimhud_infopanels_buff_options_help": "Настройки для списка баффов с информацией.",

	"jimhud_infopanels_buff_mastermind_options_name": "Навыки Манипулятора",
	"jimhud_infopanels_buff_mastermind_options_help": "Включение или отключение визуальные индикаторы Навыков Манипулятора.",
	"jimhud_infopanels_buff_enforcer_options_name": "Навыки Штурмовика",
	"jimhud_infopanels_buff_enforcer_options_help": "Включение или отключение визуальные индикаторы Навыков Штурмовика.",
	"jimhud_infopanels_buff_technician_options_name": "Навыки Техника",
	"jimhud_infopanels_buff_technician_options_help": "Включение или отключение визуальные индикаторы Навыков Техника.",
	"jimhud_infopanels_buff_ghost_options_name": "Навыки Призрака",
	"jimhud_infopanels_buff_ghost_options_help": "Включение или отключение визуальные индикаторы Навыков Призрака.",
	"jimhud_infopanels_buff_fugitive_options_name": "Навыки Беглеца",
	"jimhud_infopanels_buff_fugitive_options_help": "Включение или отключение визуальные индикаторы Навыков Беглеца.",
	"jimhud_infopanels_buff_perkdecks_options_name": "Перки",
	"jimhud_infopanels_buff_perkdecks_options_help": "Включение или отключение визуальные индикаторы Перков.",
	"jimhud_infopanels_buff_gageboosts_options_name": "Бонусы Гейджа",
	"jimhud_infopanels_buff_gageboosts_options_help": "Включение или отключение визуальных индикаторов бонусов Гейджа.",
	"jimhud_infopanels_buff_henchmen_options_name": "Навыки и бонусы союзных ботов",
	"jimhud_infopanels_buff_henchmen_options_help": "Включение или отключение визуальных индикаторов навыков и бонусов союзных ботов.",

	"jimhud_hudlist_show_buffs_title": "Показать баффы",
	"jimhud_hudlist_show_buffs_desc": "Отображает активный баффы в центральной части экрана.",
	"jimhud_hudlist_damage_increase_compbuff_title": "Бафф увеличения урона",
	"jimhud_hudlist_damage_increase_compbuff_desc": "Композитный бафф, отображает добавленное значение всего урона, увеличенного с помощью навыков.",
	"jimhud_hudlist_damage_reduction_compbuff_title": "Бафф уменьшения урона",
	"jimhud_hudlist_damage_reduction_compbuff_desc": "Композитный бафф, отображает добавленное значение всего урона, уменьшенного с помощью навыков .",
	"jimhud_hudlist_melee_damage_increase_compbuff_title": "Бафф увеличения урона в ближнем бою",
	"jimhud_hudlist_melee_damage_increase_compbuff_desc": "Композитный бафф, отображает добавленное значение всего урона в ближнем бою, увеличенного с помощью навыков..",
	"jimhud_hudlist_passive_health_regen_compbuff_title": "Пассивная регенерация здоровья",
	"jimhud_hudlist_passive_health_regen_compbuff_desc": "Композитный бафф, отображает значение всех эффектов пассивной регенерации здоровья.",
	"jimhud_hudlist_total_dodge_chance_compbuff_title": "Общий шанс уклонения",
	"jimhud_hudlist_total_dodge_chance_compbuff_desc": "Композитный бафф, отображает значение всех навыков увеличения уклонения.",
	"jimhud_hudlist_aggressive_reload_aced_buff_title": "Ловкость рук",
	"jimhud_hudlist_aggressive_reload_aced_buff_desc": "",
	"jimhud_hudlist_ammo_efficiency_buff_title": "Экономия патронов",
	"jimhud_hudlist_ammo_efficiency_buff_desc": "",
	"jimhud_hudlist_armor_break_invulnerable_buff_title": "Блицкриг-боп (Анархист)",
	"jimhud_hudlist_armor_break_invulnerable_buff_desc": "",
	"jimhud_hudlist_berserker_buff_title": "Берсеркер",
	"jimhud_hudlist_berserker_buff_desc": "Часть составных баффов.",
	"jimhud_hudlist_biker_buff_title": "Реген дебафф (Байкер)",
	"jimhud_hudlist_biker_buff_desc": "",
	"jimhud_hudlist_bloodthirst_basic_buff_title": "Жажда крови (Базовый)",
	"jimhud_hudlist_bloodthirst_basic_buff_desc": "Часть составных баффов.",
	"jimhud_hudlist_bloodthirst_aced_buff_title": "Жажда крови (ПРО)",
	"jimhud_hudlist_bloodthirst_aced_buff_desc": "",
	"jimhud_hudlist_bullet_storm_buff_title": "Свинцовый ливень",
	"jimhud_hudlist_bullet_storm_buff_desc": "",
	"jimhud_hudlist_close_contact_buff_title": "Ближний бой(Интервент)",
	"jimhud_hudlist_close_contact_buff_desc": "Часть составных баффов.",
	"jimhud_hudlist_combat_medic_buff_title": "Боевой медик (Активный)",
	"jimhud_hudlist_combat_medic_buff_desc": "Часть составных баффов.",
	"jimhud_hudlist_combat_medic_passive_buff_title": "Боевой медик (Пассивный)",
	"jimhud_hudlist_combat_medic_passive_buff_desc": "",
	"jimhud_hudlist_desperado_buff_title": "Отчаянный",
	"jimhud_hudlist_desperado_buff_desc": "",
	"jimhud_hudlist_die_hard_buff_title": "Крепкий орешек",
	"jimhud_hudlist_die_hard_buff_desc": "Часть составных баффов.",
	"jimhud_hudlist_dire_need_buff_title": "Паническая атака",
	"jimhud_hudlist_dire_need_buff_desc": "",
	"jimhud_hudlist_frenzy_buff_title": "Безумие",
	"jimhud_hudlist_frenzy_buff_desc": "Часть составных баффов.",
	"jimhud_hudlist_grinder_buff_title": "Реген здоровья (Нападающий)",
	"jimhud_hudlist_grinder_buff_desc": "",
	"jimhud_hudlist_chico_injector_buff_title": "Длительность инъектора (Вор в законе)",
	"jimhud_hudlist_chico_injector_buff_desc": "",
	"jimhud_hudlist_damage_control_debuff_title": "Продолжительность колбы (Стоик)",
	"jimhud_hudlist_damage_control_debuff_desc": "",
	"jimhud_hudlist_delayed_damage_buff_title": "Задержка урона (Стоик)",
	"jimhud_hudlist_delayed_damage_buff_desc": "",
	"jimhud_hudlist_hostage_situation_buff_title": "Ситуация с заложниками (Капо)",
	"jimhud_hudlist_hostage_situation_buff_desc": "Часть составных баффов.",
	"jimhud_hudlist_hostage_taker_buff_title": "Спекулянт",
	"jimhud_hudlist_hostage_taker_buff_desc": "",
	"jimhud_hudlist_inspire_buff_title": "Вдохновление (Ускорение)",
	"jimhud_hudlist_inspire_buff_desc": "",
	"jimhud_hudlist_lock_n_load_buff_title": "Оружие к бою",
	"jimhud_hudlist_lock_n_load_buff_desc": "",
	"jimhud_hudlist_melee_stack_damage_buff_title": "Увеличение урона оружием ближнего боя (Интервент)",
	"jimhud_hudlist_melee_stack_damage_buff_desc": "Часть составных баффов.",
	"jimhud_hudlist_maniac_buff_title": "Уменьшение урона (Маньяк)",
	"jimhud_hudlist_maniac_buff_desc": "",
	"jimhud_hudlist_muscle_regen_buff_title": "Горилла в 800 фунтов (Силовик)",
	"jimhud_hudlist_muscle_regen_buff_desc": "",
	"jimhud_hudlist_messiah_buff_title": "Мессия",
	"jimhud_hudlist_messiah_buff_desc": "",
	"jimhud_hudlist_overdog_buff_title": "Overdog (Интервент)",
	"jimhud_hudlist_overdog_buff_desc": "",
	"jimhud_hudlist_overkill_buff_title": "Overkill",
	"jimhud_hudlist_overkill_buff_desc": "Часть составных баффов.",
	"jimhud_hudlist_painkiller_buff_title": "Обезболивающее",
	"jimhud_hudlist_painkiller_buff_desc": "Часть составных баффов.",
	"jimhud_hudlist_partner_in_crime_buff_title": "Сообщник",
	"jimhud_hudlist_partner_in_crime_buff_desc": "Часть составных баффов.",
	"jimhud_hudlist_running_from_death_buff_title": "Убегая от смерти",
	"jimhud_hudlist_running_from_death_buff_desc": "Часть составных баффов.",
	"jimhud_hudlist_pocket_ecm_jammer_buff_title": "Таймер карманного генератора помех (Хакер)",
	"jimhud_hudlist_pocket_ecm_jammer_buff_desc": "",
	"jimhud_hudlist_pocket_ecm_kill_dodge_buff_title": "Уворот карманного генератора помех (Хакер)",
	"jimhud_hudlist_pocket_ecm_kill_dodge_buff_desc": "Часть составных баффов.",
	"jimhud_hudlist_quick_fix_buff_title": "Скорая помощь",
	"jimhud_hudlist_quick_fix_buff_desc": "Часть составных баффов.",
	"jimhud_hudlist_second_wind_buff_title": "Второе дыхание",
	"jimhud_hudlist_second_wind_buff_desc": "",
	"jimhud_hudlist_sixth_sense_buff_title": "Шестое чувство",
	"jimhud_hudlist_sixth_sense_buff_desc": "",
	"jimhud_hudlist_sicario_dodge_buff_title": "Дополнительное уклонение (Боевик)",
	"jimhud_hudlist_sicario_dodge_buff_desc": "",
	"jimhud_hudlist_smoke_screen_buff_title": "Дымовая завеса (Боевик)",
	"jimhud_hudlist_smoke_screen_buff_desc": "",
	"jimhud_hudlist_tag_team_buff_title": "Gas Dispenser (Tag Team)",
	"jimhud_hudlist_tag_team_buff_desc": "",
	"jimhud_hudlist_swan_song_buff_title": "Лебединая песня",
	"jimhud_hudlist_swan_song_buff_desc": "",
	"jimhud_hudlist_tooth_and_claw_buff_title": "Зубы и когти (Киллер)",
	"jimhud_hudlist_tooth_and_claw_buff_desc": "",
	"jimhud_hudlist_trigger_happy_buff_title": "Неудержимый стрелок",
	"jimhud_hudlist_trigger_happy_buff_desc": "Часть составных баффов.",
	"jimhud_hudlist_underdog_buff_title": "Загнанный зверь",
	"jimhud_hudlist_underdog_buff_desc": "Часть составных баффов.",
	"jimhud_hudlist_unseen_strike_buff_title": "Исподтишка",
	"jimhud_hudlist_unseen_strike_buff_desc": "",
	"jimhud_hudlist_up_you_go_buff_title": "Проснись и пой",
	"jimhud_hudlist_up_you_go_buff_desc": "Часть составных баффов.",
	"jimhud_hudlist_uppers_buff_title": "Колеса",
	"jimhud_hudlist_uppers_buff_desc": "",
	"jimhud_hudlist_yakuza_buff_title": "Скорость регена брони (Якудза)",
	"jimhud_hudlist_yakuza_buff_desc": "",
	"jimhud_hudlist_anarchist_armor_recovery_debuff_title": "Жажда жизни (Анархист)",
	"jimhud_hudlist_anarchist_armor_recovery_debuff_desc": "",
	"jimhud_hudlist_ammo_give_out_debuff_title": "Выдача боеприпасов дебафф (Шулер)",
	"jimhud_hudlist_ammo_give_out_debuff_desc": "",
	"jimhud_hudlist_bullseye_debuff_title": "Меткий стрелок",
	"jimhud_hudlist_bullseye_debuff_desc": "",
	"jimhud_hudlist_inspire_debuff_title": "Ускорение вдохновлением дебафф",
	"jimhud_hudlist_inspire_debuff_desc": "",
	"jimhud_hudlist_inspire_revive_debuff_title": "Поднятие вдохновлением дебафф",
	"jimhud_hudlist_inspire_revive_debuff_desc": "",
	"jimhud_hudlist_life_drain_debuff_title": "Похититель жизней дебафф (Интервент)",
	"jimhud_hudlist_life_drain_debuff_desc": "",
	"jimhud_hudlist_medical_supplies_debuff_title": "Медицинские припасы дебафф (Шулер)",
	"jimhud_hudlist_medical_supplies_debuff_desc": "",
	"jimhud_hudlist_sociopath_debuff_title": "Реген дебафф (Социопат)",
	"jimhud_hudlist_sociopath_debuff_desc": "",
	"jimhud_hudlist_armorer_teambuff_title": "Текучая броня (Оружейник)",
	"jimhud_hudlist_armorer_teambuff_desc": "",
	"jimhud_hudlist_bulletproof_teambuff_title": "Шок и трепет",
	"jimhud_hudlist_bulletproof_teambuff_desc": "",
	"jimhud_hudlist_crew_chief_teambuff_title": "Увеличенные характеристики командный бафф (Капо)",
	"jimhud_hudlist_crew_chief_teambuff_desc": "Часть составных баффов.",
	"jimhud_hudlist_forced_friendship_teambuff_title": "Навязанная дружба командный бафф",
	"jimhud_hudlist_forced_friendship_teambuff_desc": "",
	"jimhud_hudlist_life_steal_gage_debuff_title": "Сам себе врач",
	"jimhud_hudlist_life_steal_gage_debuff_desc": "",
	"jimhud_hudlist_invulnerable_gage_buff_title": "Почти неуязвимость",
	"jimhud_hudlist_invulnerable_gage_buff_desc": "",
	"jimhud_hudlist_crew_inspire_debuff_title": "Вдохновитель",
	"jimhud_hudlist_crew_inspire_debuff_desc": "",
	"jimhud_hudlist_crew_throwable_regen_buff_title": "Про запас",
	"jimhud_hudlist_crew_throwable_regen_buff_desc": "",
	"jimhud_hudlist_crew_health_regen_buff_title": "Лекарь",
	"jimhud_hudlist_crew_health_regen_buff_desc": "",

	"jimhud_waypoints_options_name": "Настройки пользовательских вэйпоинтов",
	"jimhud_waypoints_options_help": "Настройки управления пользовательскими вэйпоинтами.",

	"jimhud_waypoints_color_title": "Цвет вэйпоинтов",
	"jimhud_waypoints_color_desc": "Цвет вэйпоинтов в миссии по умолчанию.",
	"jimhud_waypoints_show_ammo_bag_title": "Показать сумки с боеприпасами",
	"jimhud_waypoints_show_ammo_bag_desc": "Показать вэйпоинты для сумок с боеприпасами с остатком в процентах.",
	"jimhud_waypoints_show_doc_bag_title": "Показать медицинские сумки",
	"jimhud_waypoints_show_doc_bag_desc": "Показать вэйпоинты медицинских сумок с кол-вом оставшихся использований.",
	"jimhud_waypoints_show_first_aid_kit_title": "Показать аптечки первой помощи",
	"jimhud_waypoints_show_first_aid_kit_desc": "Показать вэйпоинты аптечек первой помощи, отображая также эффекты навыков.",
	"jimhud_waypoints_show_body_bag_title": "Показать кейсы с мешками для трупов",
	"jimhud_waypoints_show_body_bag_desc": "Показать вэйпоинты кейсов с мешками для трупов с кол-вом оставшихся мешков.",
	"jimhud_waypoints_show_grenade_crate_title": "Показать кейсы с гранатами",
	"jimhud_waypoints_show_grenade_crate_desc": "Показать вэйпоинты кейсов с гранатами с оставшимся кол-вом гранат.",
	"jimhud_waypoints_show_sentries_title": "Показать турели",
	"jimhud_waypoints_show_sentries_desc": "Показать вэйпоинты турелей с кол-вом оставшихся боеприпасов.",
	"jimhud_waypoints_show_ecms_title": "Показать генераторы помех",
	"jimhud_waypoints_show_ecms_desc": "Показать вэйпоинты генераторов помех с оставшейся батареей и длительностью обратной связи.",
	"jimhud_waypoints_show_timers_title": "Показать таймеры",
	"jimhud_waypoints_show_timers_desc": "Показать вэйпоинты таймеров с оставшимся временем и активации обновлений.",
	"jimhud_waypoints_show_loot_title": "Показать ценности",
	"jimhud_waypoints_show_loot_desc": "Показать название добычи сверху, при взгляде вблизи него.",
	"jimhud_waypoints_loot_icon_title": "Значок сумки",
	"jimhud_waypoints_loot_icon_desc": "Показывает значок сумки к добыче.",
	"jimhud_waypoints_loot_offset_title": "Смещение по высоте",
	"jimhud_waypoints_loot_offset_desc": "Установите смещение по высоте текста к добыче.",
	"jimhud_waypoints_loot_bagged_offset_title": "Смещение высоты взятой добычи",
	"jimhud_waypoints_loot_bagged_offset_desc": "Установите смещение по высоте текста к взятой добыче.",
	"jimhud_waypoints_loot_angle_title": "Видимый угол",
	"jimhud_waypoints_loot_angle_desc": "Установите угол текста, под которым он виден.",
	"jimhud_waypoints_show_special_equipment_title": "Показать спец. снаряжение",
	"jimhud_waypoints_show_special_equipment_desc": "Показать вэйпоинты для различнного снаряжения. Хорошо для изучения всех локаций.",
	"jimhud_waypoints_show_minions_title": "Показать миньонов",
	"jimhud_waypoints_show_minions_desc": "Показать имена миньонов над головами, в цвете игрока, который конвертировал его. \nТакже показывает его кол-во убийств.",
	"jimhud_waypoints_show_pager_title": "Показать пейджеры",
	"jimhud_waypoints_show_pager_desc": "Показать вэйпоинты активных пейджеров. Изменяется цвет, когда кто-то отвечает на него.",

	"jimhud_tabstats_options_name": "TabStats Настройки",
	"jimhud_tabstats_options_help": "Настройте отображение вашего окна на TAB.",

	"jimhud_tabstats_clock_mode_title": "Формат времени",
	"jimhud_tabstats_clock_mode_desc": "Какой формат времени вы используете?",
	"jimhud_tabstats_clock_mode_a": "12ч",
	"jimhud_tabstats_clock_mode_b": "24ч",
	"jimhud_tabstats_clock_mode_c": "Время ограбления",
	"jimhud_use_tabstats_desc": "Показывает вашу статистику на экране TAB вместо брифинга миссии.\n(Необходимо сменить карту для принятия изменений...)",
	"jimhud_tabstats_font_size_title": "Размер шрифта списка",
	"jimhud_tabstats_font_size_desc": "Размер шрифта для списка расширенной статистики.",
	"jimhud_tabstats_color_title": "Цвет списка",
	"jimhud_tabstats_color_desc": "Цвет для списка расширенной статистики.",
	"jimhud_tabstats_actual_mask_title": "Использовать фактическую маску",
	"jimhud_tabstats_actual_mask_desc": "Использует фактическую маску вместо вашего изображения персонажа на экране TAB.\n(Необходимо сменить карту для принятия изменений...)",
	"jimhud_tabstats_numeric_loot_title": "Числовой счетчик добычи",
	"jimhud_tabstats_numeric_loot_desc": "Отключает миниигру подсчета добычи и отображает кол-во сразу же.",

	"jimhud_dmgindicator_options_name": "Индикатор попадания",
	"jimhud_dmgindicator_options_help": "Установите время исчезания, размер и цвета для индикаторов попадания.",

	"jimhud_show_dmg_indicator_title": "Динамический индикатор попадания",
	"jimhud_show_dmg_indicator_desc": "Меняет 4 статических показателя попаданий на несколько динамических в соответствии с вашей позицией во время движения.",
	"jimhud_dmg_ind_time_title": "Время индикатора",
	"jimhud_dmg_ind_time_desc": "Определяет время отображения индикатора.",
	"jimhud_dmg_ind_size_title": "Размер индикатора",
	"jimhud_dmg_ind_size_desc": "Определяет размер круга, где индикаторы расположены вокруг.",
	"jimhud_dmg_indicator_max_count_title": "Макс. кол-во индикаторов",
	"jimhud_dmg_indicator_max_count_desc": "Укажите максимальное кол-во индикаторов попадания на экране.",
	"jimhud_dmg_shield_color_title": "Цвет брони",
	"jimhud_dmg_shield_color_desc": "Цвет индикатора, когда наносят урон броне.",
	"jimhud_dmg_health_color_title": "Цвет здоровья",
	"jimhud_dmg_health_color_desc": "Цвет здоровья, когда наносят урон здоровью.",
	"jimhud_dmg_crit_color_title": "Цвет низкого здоровья",
	"jimhud_dmg_crit_color_desc": "Цвет индикатор, когда ваше здоровье кончается",
	"jimhud_dmg_vehicle_color_title": "Цвет транспорта",
	"jimhud_dmg_vehicle_color_desc": "Цвет индикатор, когда транспорту наносится урон.",
	"jimhud_dmg_friendlyfire_color_title": "Цвет огня по своим",
	"jimhud_dmg_friendlyfire_color_desc": "Цвет индикатора, когда вы получаете урон от огня или гранат.",

	"jimhud_dmgpopup_options_name": "Всплывающий урон врага",
	"jimhud_dmgpopup_options_help": "Всплывающий урон появляется возле головы врага.",

	"jimhud_show_dmg_popup_title": "Показать всплывающий урон",
	"jimhud_show_dmg_popup_desc": "Включить всплывающий урон.",
	"jimhud_dmg_popup_player": "Игрок",
	"jimhud_dmg_popup_all": "Все",
	"jimhud_dmg_popup_scale_title": "Масштаб всплывающей информации",
	"jimhud_dmg_popup_scale_desc": "Изменяет размер всплывающей информации.",
	"jimhud_dmg_popup_skull_scale_title": "Масштаб черепа",
	"jimhud_dmg_popup_skull_scale_desc": "Изменяет размер иконки черепа, когда враг был убит.",
	"jimhud_dmg_popup_skull_align_title": "Выравнивание черепа",
	"jimhud_dmg_popup_skull_align_desc": "Изменяет выравнивание иконки черепа, когда враг был убит.",
	"jimhud_dmg_popup_time_title": "Время всплывающей информации",
	"jimhud_dmg_popup_time_desc": "Определяет как долго будет отображаться всплывающая информация.",
	"jimhud_dmg_popup_height_title": "Высота всплывающей информации",
	"jimhud_dmg_popup_height_desc": "Задаёт, насколько высоко над противником будет отображаться всплывающая информация.",
	"jimhud_dmg_popup_alpha_title": "Непрозрачность всплывающей информации",
	"jimhud_dmg_popup_alpha_desc": "Задайте непрозрачность всплывающей информации.",
	"jimhud_dmg_popup_color_title": "Цвет выстрела в тело",
	"jimhud_dmg_popup_color_desc": "Задайте цвет всплывающей информации о выстреле в тело",
	"jimhud_dmg_popup_critical_color_title": "Цвет критического урона",
	"jimhud_dmg_popup_critical_color_desc": "Задайте цвет всплывающей информации о критических попаданиях.",
	"jimhud_dmg_popup_headshot_color_title": "Цвет выстрела в голову",
	"jimhud_dmg_popup_headshot_color_desc": "Задайте цвет всплывающей информации о выстреле в голову.",

	"jimhud_enemyhealthbar_options_name": "Полоса здоровья врага",
	"jimhud_enemyhealthbar_options_help": "Определите над какими врагами будет отображена полоса здоровья.",

	"jimhud_show_enemyhealthbar_title": "Показать полосу здоровья врага",
	"jimhud_show_enemyhealthbar_desc": "Отобразить полосу здоровья врага вверху.\n(Необходимо сменить карту для принятия изменений...)",
	"jimhud_show_civhealthbar_title": "Полоса здоровья гражданских",
	"jimhud_show_civhealthbar_desc": "Показать полосу здоровья для гражданских и ботов в команде.",
	"jimhud_show_carhealthbar_title": "Показать полосу здоровья транспорта",
	"jimhud_show_carhealthbar_desc": "Показать полосу здоровья управляемого транспорта.",
	"jimhud_show_healthbar_pointer_title": "Показать указатель",
	"jimhud_show_healthbar_pointer_desc": "Показать стрелку под полосой здоровья, направленную на юнита.",

	"jimhud_press2hold_lock_mode_title": "Режим блокировки",
	"jimhud_press2hold_lock_mode_desc": "Блокировка происходит после X секунд. (В прогрессе)\nБлокировка, когда общее время взаимодействия более X секунд. (Общее)",
	"jimhud_press2hold_lock_mode_a": "В прогрессе",
	"jimhud_press2hold_lock_mode_b": "Общее",
	"jimhud_press2hold_lock_mode_c": "Пейджеры+взлом",
	"jimhud_press2hold_lock_mode_d": "Только пейджеры",
	"jimhud_press2hold_min_timer_duration_title": "Минимальное время таймера",
	"jimhud_press2hold_min_timer_duration_desc": "Минимальное время таймера для блокировки взаимодействия.",
	"jimhud_press2hold_show_lockindicator_title": "Показать индикатор блокировки",
	"jimhud_press2hold_show_lockindicator_desc": "Показать прозрачный красный/зелёный круг наложения, чтобы знать, заблокировано взаимодействие или нет.",
	"jimhud_press2hold_equipment_cancel_title": "Снаряжения для прерывания",
	"jimhud_press2hold_equipment_cancel_desc": "Прерывания заблокированного взаимодействия клавишей снаряжения.\n(В противном случае - при повторном нажатии клавиши взаимодействия.)",
	"jimhud_press2hold_interrupt_hint_title": "Показать подсказку взаимодействия",
	"jimhud_press2hold_interrupt_hint_desc": "Показывает текст, напоминащий вам, какая кнопка отменяет взаимодействие.",
	"jimhud_press2hold_show_timer_title": "Показать оставшееся время",
	"jimhud_press2hold_show_timer_desc": "Отображать оставшееся время внутри круга взаимодействия.",
	"jimhud_press2hold_show_circle_title": "Показать круг взаимодействия",
	"jimhud_press2hold_show_circle_desc": "Отображать стандартный круг взаимодействия?.",
	"jimhud_press2hold_circle_scale_title": "Масштаб круга",
	"jimhud_press2hold_circle_scale_desc": "Коэффициент масштаба круга взаимодействия.",
	"jimhud_press2hold_timer_scale_title": "Масштаб таймера",
	"jimhud_press2hold_timer_scale_desc": "Коэффициент масштаба таймера в центре(а также масштаб круга).",
	"jimhud_press2hold_text_scale_title": "Масштаб текста",
	"jimhud_press2hold_text_scale_desc": "Масштабирует текст взаимодействия ниже круга.",
	"jimhud_press2hold_show_reload_circle_title": "Показать время перезарядки",
	"jimhud_press2hold_show_reload_circle_desc": "Показать перезарядку как взаимодействие?.",
	"jimhud_press2hold_show_melee_circle_title": "Время перезарядки в ближнем бою",
	"jimhud_press2hold_show_melee_circle_desc": "Показывает время полной готовности оружия ближнего боя",
	"jimhud_press2hold_timer_color_start_title": "Цвет таймера(Начало)",
	"jimhud_press2hold_timer_color_start_desc": "Цвет таймера во время начала отсчета.",
	"jimhud_press2hold_timer_color_title": "Цвет таймера(Конец)",
	"jimhud_press2hold_timer_color_desc": "Цвет для таймера, отображающего время до завершения.",
	"jimhud_press2hold_show_timer_outline_title": "Черный контур",
	"jimhud_press2hold_show_timer_outline_desc": "Показать черный контур вокруг остального текста таймера.",
	"jimhud_doubletap_nades_stealth_title": "Пресечение взрывов в стелсе",
	"jimhud_doubletap_nades_stealth_desc": "Во время стелса, необходимо будет дважды нажать на клавишу броска гранаты. \nДля предотвращения случайных нажатий.",
	"jimhud_hold_to_pick_title": "Автоподбор",
	"jimhud_hold_to_pick_desc": "Небольшие предметы будут подобраны автоматически при нажатии клавиши взаимодействия.",

	"jimhud_inventory_options_name": "Настройки твиков инвентаря",
	"jimhud_inventory_options_help": "Настройки, изменяющие визуальные эффекты вашего инвентаря и поведения снаряжения.",

	"jimhud_equipment_senty_auto_ap_title": "Авторежим AP турелей",
	"jimhud_equipment_senty_auto_ap_desc": "Турели будут установлены в AP режиме, если у вас есть необходимый навык.",
	"jimhud_equipment_tripmine_auto_sensor_stealth_title": "Авторежим датчика мин",
	"jimhud_equipment_tripmine_auto_sensor_stealth_desc": "Мины будут устанавливаться с режимом датчика, пока вы стелсите.",
	"jimhud_equipment_ecm_feedback_disabled_stealth_title": "Без обратной связи генератора помех",
	"jimhud_equipment_ecm_feedback_disabled_stealth_desc": "Обратная связь генератора помех будет отключена во время стелса.",
	"jimhud_equipment_shaped_charge_disabled_stealth_title": "Подавление заряда мины",
	"jimhud_equipment_shaped_charge_disabled_stealth_desc": "Если выбрано, вам нужно дважды нажать, чтобы установить кумулятивный заряд во время стелса. \n Для предотвращения случайных нажатий",
	"jimhud_equipment_keycard_doors_disabled_title": "Подавление ключ-карт",
	"jimhud_equipment_keycard_doors_disabled_desc": "Когда выбрано, вам необходимо 2 раза нажать, чтобы закрыть двери на втором дне Спасения Хокстона. \nДля предотвращения случайных нажатий.",

	"jimhud_laser_autoon_title": "Включение автолазера",
	"jimhud_laser_autoon_desc": "Автоматически включается гаджет лазера при запуске на оружии, которое его имеет.",
	"jimhud_show_angeled_sight_title": "Показать угол обзора",
	"jimhud_show_angeled_sight_desc": "Наклоняет оружие в руке, пока угол обзора включен.",

	"jimhud_gadget_player_laser_options_name": "Лазер игрока",
	"jimhud_gadget_player_laser_options_help": "Настройки вашего лазера.",
	"jimhud_gadget_player_sentry_laser_options_name": "Настройки турели игрока",
	"jimhud_gadget_player_sentry_laser_options_help": "Настройки лазеров ваших турелей.",
	"jimhud_gadget_team_laser_options_name": "Лазеры напарников",
	"jimhud_gadget_team_laser_options_help": "Настройки лазеров ваших напарников.",
	"jimhud_gadget_team_sentry_laser_options_name": "Лазеры турелей напарников",
	"jimhud_gadget_team_sentry_laser_options_help": "Настройки лазеров турелей ваших напарников.",
	"jimhud_gadget_sniper_laser_options_name": "Лазер снайпера",
	"jimhud_gadget_sniper_laser_options_help": "Настройки лазеров вражеских снайперов.",
	"jimhud_gadget_turret_laser_active_options_name": "Лазер турели (Активный)",
	"jimhud_gadget_turret_laser_active_options_help": "Настройки лазера активной турели спецназа.",
	"jimhud_gadget_turret_laser_rearming_options_name": "Лазер турели (Перезарядка)",
	"jimhud_gadget_turret_laser_rearming_options_help": "Настройки лазера турели спецназа во время перезарядки.",
	"jimhud_gadget_turret_laser_mad_options_name": "Лазер турели (Бешеный)",
	"jimhud_gadget_turret_laser_mad_options_help": "Настройки лазера вышедшей из строя турели спецназа.",
	"jimhud_gadget_player_flashlight_options_name": "Фонарик игрока",
	"jimhud_gadget_player_flashlight_options_help": "Настройки ваших фонариков.",
	"jimhud_gadget_team_flashlight_options_name": "Фонарик напарников",
	"jimhud_gadget_team_flashlight_options_help": "Настройки фонариков ваших напарников.",

	"jimhud_gadgets_enabled_title": "Перезапись цвета",
	"jimhud_gadgets_enabled_desc": "Используйте это определение вместо настроек гаджета.",
	"jimhud_gadgets_beam_r_title": "Лазерный луч (R)",
	"jimhud_gadgets_beam_r_desc": "Красный компонент цвета лазера.",
	"jimhud_gadgets_beam_g_title": "Лазерный луч (G)",
	"jimhud_gadgets_beam_g_desc": "Зеленый компонент цвета лазера.",
	"jimhud_gadgets_beam_b_title": "Лазерный луч (B)",
	"jimhud_gadgets_beam_b_desc": "Синий компонент цвета лазера.",
	"jimhud_gadgets_beam_a_title": "Лазерный луч Альфа",
	"jimhud_gadgets_beam_a_desc": "Непрозрачность лазерного луча.",
	"jimhud_gadgets_dot_match_title": "Соответствие цвета точки",
	"jimhud_gadgets_dot_match_desc": "Определяет, должна ли соответствовать точка лазера лучу в цвете",
	"jimhud_gadgets_dot_r_title": "Точка лазера (R)",
	"jimhud_gadgets_dot_r_desc": "Красный компонент цвета точки лазера.",
	"jimhud_gadgets_dot_g_title": "Точка лазера (G)",
	"jimhud_gadgets_dot_g_desc": "Зеленый компонент цвета точки лазера.",
	"jimhud_gadgets_dot_b_title": "Точка лазера (B)",
	"jimhud_gadgets_dot_b_desc": "Синий компонент цвета точки лазера.",
	"jimhud_gadgets_dot_a_title": "Точка лазера Альфа",
	"jimhud_gadgets_dot_a_desc": "Непрозрачность точки лазера.",
	"jimhud_gadgets_glow_match_title": "Соответствие цвета свечения",
	"jimhud_gadgets_glow_match_desc": "Определяет, должно ли свечение лазера соответствовать лучу в цвете.",
	"jimhud_gadgets_glow_r_title": "Свечение лазера (R)",
	"jimhud_gadgets_glow_r_desc": "Красный компонент цвета свечения лазера.",
	"jimhud_gadgets_glow_g_title": "Свечение лазера (G)",
	"jimhud_gadgets_glow_g_desc": "Зеленый компонент цвета свечения лазера.",
	"jimhud_gadgets_glow_b_title": "Свечение лазера (B)",
	"jimhud_gadgets_glow_b_desc": "Синий компонент цвета свечения лазера.",
	"jimhud_gadgets_glow_a_title": "Свечение лазера Альфа",
	"jimhud_gadgets_glow_a_desc": "Непрозрачность свечения лазера.",
	"jimhud_gadgets_light_r_title": "Фонарик (R)",
	"jimhud_gadgets_light_r_desc": "Красный компонент цвета фонарика.",
	"jimhud_gadgets_light_g_title": "Фонарик (G)",
	"jimhud_gadgets_light_g_desc": "Зеленый компонент цвета фонарика.",
	"jimhud_gadgets_light_b_title": "Фонарик (B)",
	"jimhud_gadgets_light_b_desc": "Синий компонент цвета фонарика.",
	"jimhud_gadgets_light_brightness_title": "Яркость фонарика",
	"jimhud_gadgets_light_brightness_desc": "Яркость фонарика.",
	"jimhud_gadgets_light_angle_title": "Угол фонарика",
	"jimhud_gadgets_light_angle_desc": "Угол свечения фонарика.",
	"jimhud_gadgets_light_range_title": "Дальность фонарика",
	"jimhud_gadgets_light_range_desc": "Расстояние охвата света фонарика.",
	"jimhud_gadgets_rainbow_enabled_title": "Включить разноцветный режим",
	"jimhud_gadgets_rainbow_enabled_desc": "Включает разноцветный режим.",
	"jimhud_gadgets_rainbow_frequency_title": "Частота разноцветного режима",
	"jimhud_gadgets_rainbow_frequency_desc": "Определяет как быстро будут меняться цвета.",
	"jimhud_gadgets_pulse_enabled_title": "Включить импульс",
	"jimhud_gadgets_pulse_enabled_desc": "Активирует режим импульса.",
	"jimhud_gadgets_pulse_min_title": "Минимальный импульс",
	"jimhud_gadgets_pulse_min_desc": "Минимальный модификатор непрозрачности, которые используется.",
	"jimhud_gadgets_pulse_max_title": "Максимальный импульс",
	"jimhud_gadgets_pulse_max_desc": "Максимальный модификатор непрозрачности, которые используется.",
	"jimhud_gadgets_pulse_frequency_title": "Частота импульса",
	"jimhud_gadgets_pulse_frequency_desc": "Определяет время, необходимое импульсу от минимальной до максимальной нерпозрачности мультипликатора.",

	"jimhud_assaultbanner_options_name": "Настройки баннера штурма",
	"jimhud_assaultbanner_options_help": "Настройки для изменений баннера штурма."
}